47 115 183 64 132 183 98 64 81 47 183 115 64 115 98 183 166 183 132 115 149 64 47 64 115 81
149 47 166 149 132 149 115 166 183 47 47 98 47 115 81 64 132 166 166 166 81 183 166 183 149 166
132 115 183 81 149 64 47 81 81 47 64 47 47 115 166 166 47 47 98 183 115 81 183 183 149 132
47 166 183 47 149 149 149 81 98 81 149 64 115 115 183 132 149 47 183 183 166 183 132 81 115 115
115 81 64 149 132 132 149 47 64 149 64 64 64 64 132 115 115 81 47 183 115 149 115 47 149 166
47 183 47 166 132 166 115 64 166 166 183 132 166 64 149 98 149 132 81 115 81 81 98 115 132 115
47 47 115 81 149 47 132 98 47 98 64 81 64 98 183 98 64 115 183 98 149 98 98 115 166 132
115 81 115 183 81 64 166 183 47 115 47 132 149 47 81 183 183 132 64 81 64 132 81 183 149 183
81 115 183 98 149 64 115 132 166 132 183 81 47 132 98 81 149 115 64 64 115 64 183 64 81 81
183 149 47 132 132 64 98 166 149 81 64 115 149 64 132 149 47 183 132 64 183 98 98 98 166 149
132 183 166 64 132 98 64 149 64 81 166 132 149 183 166 115 81 47 149 47 166 47 64 98 81 149
183 166 166 81 183 149 81 98 132 98 98 81 81 81 166 98 166 81 81 149 132 47 132 47 81 64
81 166 149 98 166 115 64 183 98 183 132 183 64 81 132 64 47 81 183 81 64 149 115 149 132 149
47 64 115 183 149 47 47 81 149 98 81 132 64 149 115 166 81 47 47 81 149 81 149 98 132 64
183 149 115 149 47 64 115 98 47 166 47 132 132 132 81 98 64 47 115 132 47 149 98 81 81 47
149 149 47 47 47 81 183 81 132 132 81 149 115 183 81 132 115 132 132 166 115 81 81 132 183 81
132 132 183 47 47 132 47 81 183 98 98 166 115 81 149 64 47 115 47 115 115 132 132 64 47 132
98 132 115 115 132 64 47 132 64 98 183 115 149 47 166 98 81 132 47 81 115 64 132 166 183 149
183 81 183 47 81 183 64 81 47 81 149 183 149 64 98 115 166 166 166 132 81 183 81 115 132 115
47 64 166 132 98 47 64 81 98 166 115 166 132 81 81 81 115 166 183 81 166 149 149 47 149 98
183 64 183 149 115 183 64 132 166 115 132 47 149 115 183 98 47 64 47 115 166 132 115 166 47 183
98 98 115 132 64 132 64 166 132 81 115 115 132 132 81 115 183 166 132 166 115 166 149 166 166 47
98 64 183 47 64 98 166 98 115 64 149 149 47 183 98 183 64 132 166 98 149 115 47 98 183 47
98 132 81 98 149 64 166 98 98 47 64 115 183 183 98 98 166 166 115 64 149 166 166 149 149 149
81 166 98 64 98 166 64 149 81 47 149 81 183 81 98 149 64 115 132 98 149 115 149 64 183 149
98 81 115 98 149 64 166 47 183 166 47 183 115 183 98 115 149 183 166 183 64 47 149 115 81 64
