470.8191437316772 410.42653163787935 700.9806839751533 1824.9886958726179 0.2530000000000169 0.16699999999993662 0.15100000000008498 0.1659999999999344 0.24899999999981992 1.0 1.0 1.0 1.0 0.8923132729470042 -0.16059673686493126 -0.987020105219917 0.6946732554108825 0.7193254258100757 0.0 -1.0 -1.8369701987210297e-16 0.197375320224904 0.9528598531644579 0.30341077803434696 0.05735051101283095 0.0 10000.0 5.741351221682608 0.76796556360242
470.8191437316772 410.42653163787935 701.9803997608984 1825.008243665033 0.1510000000001103 0.16699999999997794 0.25400000000002587 1.0 1.0 1.0 1.0 1.0 1.0 0.8923499841269498 -0.1612740192106575 -0.9869096669541952 0.9998088880562913 0.01954961287704564 0.09965877510845687 0.9874770239575247 0.15776288269421995 0.045923112583796444 -0.5523361791051131 -0.8336214640060345 0.18596308562689834 0.9999068798925109 4.5955436406262615 18.815236982124244 1.5512454684344679
470.8191437316772 410.42653163787935 703.4217450265973 1823.6221842931682 0.29700000000008964 1.0 1.0 1.0 1.0 1.0 1.0 1.0 1.0 0.892118635645406 -0.16240814993651723 -0.9867236658934444 0.7207954707130904 -0.6931478120859176 0.1973425638423048 0.9992840665765957 0.03783324313539262 0.03329380589099751 -0.5710021767671981 -0.8209485453590386 0.19494425023264705 1.9996591602786835 3.330611589094215 19.747164068119687 2.3366433977650236
470.8191437316772 410.42653163787935 703.4808341266108 1820.624060049957 1.0 1.0 1.0 1.0 1.0 1.0 1.0 1.0 1.0 0.8915151649241826 -0.16278454637708467 -0.9866616398040449 0.019704862941480588 -0.9998058403392418 0.29119423237540043 0.9991100893483814 0.0421785414905406 0.036686193354765306 -0.5403120222887182 -0.8414647458867636 0.1878336974587802 2.998706471042312 3.6702665023410455 19.009068977132763 3.1218865152527586
470.8191437316772 410.42653163787935 700.8012425282899 1817.7042954992073 1.0 1.0 1.0 1.0 1.0 1.0 1.0 1.0 1.0 0.8908328350328287 -0.16128385780737414 -0.9869080591477459 -0.6761551678646625 -0.7367592476310766 0.3767772183451964 0.9916697905585958 -0.12880615860070807 0.06865329111665597 1.0 1.0 0.197375320224904 3.962983240641732 6.87614577727034 10000.0 3.8841241341262775
470.8191437316772 410.42653163787935 698.5410843517633 1813.3556647753217 1.0 1.0 1.0 1.0 1.0 1.0 1.0 1.0 1.0 0.8898678864965954 -0.16022192393256848 -0.987081017491141 -0.4611712655117861 -0.887311142647413 0.4542885364549748 0.9886314440809472 -0.15035912933513915 0.09709368714343514 1.0 1.0 0.197375320224904 4.90090850308817 9.74005313156623 10000.0 3.6209074166763258
470.8191437316772 410.42653163787935 696.8399176653544 1808.0883675852162 1.0 1.0 1.0 1.0 1.0 1.0 1.0 1.0 1.0 0.8887235005676881 -0.15963957435452117 -0.9871753675512306 -0.3073363400387484 -0.951600953179213 0.503153382618005 0.9861865664312514 -0.16563832947279794 0.1208296472667858 1.0 1.0 0.197375320224904 5.535195369979294 12.142288238145825 10000.0 3.453985280522202
470.8191437316772 410.42653163787935 695.889004833292 1802.2329912158923 1.0 1.0 1.0 1.0 1.0 1.0 1.0 1.0 1.0 0.8874701578168909 -0.15963679608469086 -0.9871758168309305 -0.16029985351785783 -0.9870683648877383 0.5321994829767186 0.9810785534086437 -0.19361010314961086 0.13622919349399942 1.0 1.0 0.197375320224904 5.932087966358846 13.70814352007992 10000.0 3.302587080968064
470.8191437316772 410.42653163787935 695.4831830280923 1796.09195501172 1.0 1.0 1.0 1.0 1.0 1.0 1.0 1.0 1.0 0.8861617161592119 -0.16004446141796752 -0.9871098066423172 -0.06593978001884782 -0.9978236043565345 0.5479472623435193 0.9723932530757554 -0.233348154851822 0.14462412916037581 1.0 1.0 0.197375320224904 6.154430680292773 14.564530163415814 10000.0 3.207580312309087
470.8191437316772 410.42653163787935 695.3444338769385 1789.8656140108067 1.0 1.0 1.0 1.0 1.0 1.0 1.0 1.0 1.0 0.8848300723062867 -0.16065151185974483 -0.9870111912927727 -0.02227868879726382 -0.9997517992109215 0.55306668215595 0.9603677343665962 -0.27873610241152996 0.14945505008703686 1.0 1.0 0.197375320224904 6.227886767323286 15.058298897758231 10000.0 3.163873185766116
470.8191437316772 410.42653163787935 695.2912378458219 1783.6273717941897 1.0 1.0 1.0 1.0 1.0 1.0 1.0 1.0 1.0 0.8834843813445725 -0.16132513032137305 -0.9869013133676497 -0.008527097098153935 -0.9999636436466471 0.553800784960873 0.9397141897346474 -0.3419608773110677 0.1485516704494234 1.0 1.0 0.197375320224904 6.238469024601127 14.965909702094201 10000.0 3.1501198540275017
470.8191437316772 410.42653163787935 695.1014911899222 1777.4474397914958 1.0 1.0 1.0 1.0 1.0 1.0 1.0 1.0 1.0 0.882131954397761 -0.1619019542843833 -0.9868068489825643 -0.03068921800461509 -0.9995289750168652 0.5499324184886533 0.9097856174196389 -0.41507846286740346 0.15013695530465943 1.0 1.0 0.197375320224904 6.18284427681523 15.128054661052376 10000.0 3.172286690965236
470.8191437316772 410.42653163787935 694.750187418151 1771.299934109447 1.0 1.0 1.0 1.0 1.0 1.0 1.0 1.0 1.0 0.8807662208612148 -0.1623660306246447 -0.9867305975286248 -0.057052661018383195 -0.9983711703924154 0.5481644693756215 0.8720246547093892 -0.48946195110444557 0.15515100723587927 1.0 1.0 0.197375320224904 6.1575352577864235 15.64142260031271 10000.0 3.1986763111588425
470.8191437316772 410.42653163787935 694.3069237156201 1765.130804638574 1.0 1.0 1.0 1.0 1.0 1.0 1.0 1.0 1.0 0.8793775162076727 -0.16277153875529485 -0.9866637857807661 -0.0716671449616286 -0.9974286041281596 0.5500851245160475 0.8310790705447063 -0.5561542758107205 0.16397178611151797 1.0 1.0 0.197375320224904 6.185033640844132 16.54655140380749 10000.0 3.213321290003852
470.8191437316772 410.42653163787935 693.8937625846787 1758.885193223963 1.0 1.0 1.0 1.0 1.0 1.0 1.0 1.0 1.0 0.8779575734487113 -0.1632111200398743 -0.986591166743008 -0.06600795966971211 -0.9978190964599954 0.5552407296352546 0.4610855552918124 -0.8873556844362023 0.1776585162210349 1.0 1.0 0.197375320224904 6.259262261835876 17.95638493237932 10000.0 3.2076486408238156
470.8191437316772 410.42653163787935 692.8359941202449 1752.5562230283172 1.0 1.0 1.0 1.0 1.0 1.0 1.0 1.0 1.0 0.8764786046507704 -0.1632034131421265 -0.9865924416590471 -0.16484477787547153 -0.9863195218625587 0.5660392653222562 0.569960344520096 -0.821672200865122 0.19460204445379303 1.0 1.0 0.197375320224904 6.4167544648149315 19.711594086414056 10000.0 3.307193287737922
470.8191437316772 410.42653163787935 692.0479544356579 1745.9418549272539 1.0 1.0 1.0 1.0 1.0 1.0 1.0 1.0 1.0 0.8749272194059048 -0.16342351764577775 -0.9865560064589746 -0.11830391231552874 -0.9929774339484456 0.5824182922826102 0.49280317010189706 -0.870140813625887 0.18000890969089456 1.0 1.0 0.197375320224904 6.661146441930773 18.199189664707013 10000.0 3.260174278510315
470.8191437316772 410.42653163787935 690.8987644106107 1739.4102503501165 1.0 1.0 1.0 1.0 1.0 1.0 1.0 1.0 1.0 0.87336304162052 -0.16337494517450812 -0.9865640512856864 -0.17328138535560614 -0.9848723579678952 0.5804844196212331 0.5768335315422624 -0.8168617244604387 0.19177785811104742 1.0 1.0 0.197375320224904 6.631930040776208 19.41822603986074 10000.0 3.3157531403358553
470.8191437316772 410.42653163787935 690.0291476988563 1732.7263714480212 1.0 1.0 1.0 1.0 1.0 1.0 1.0 1.0 1.0 0.8717555501917347 -0.16354721236336595 -0.9865355083970228 -0.12901917494257312 -0.9916420989939554 0.5876188617368392 0.5257795090277626 -0.8506208955148732 0.1749020955017504 1.0 1.0 0.197375320224904 6.7402129345620025 17.671902435834056 10000.0 3.2709724776929394
470.8191437316772 410.42653163787935 688.7926231238973 1726.2284065139338 1.0 1.0 1.0 1.0 1.0 1.0 1.0 1.0 1.0 0.8701590441351936 -0.16343096963958526 -0.9865547720033921 -0.18693951442987683 -0.9823714256556538 0.57933224852402 0.636004709202253 -0.7716851753614019 0.18625412188424884 1.0 1.0 0.197375320224904 6.6145703797833 18.845384821085613 10000.0 3.3296384653210898
470.8191437316772 410.42653163787935 687.950003114804 1719.5891105269334 1.0 1.0 1.0 1.0 1.0 1.0 1.0 1.0 1.0 0.8685256304090345 -0.16361962900229524 -0.9865235004829592 -0.1259041303515562 -0.9920424133878644 0.5844897775175014 0.6224013822579239 -0.7826982300755674 0.17463737633728194 1.0 1.0 0.197375320224904 6.692552553601896 17.644596473311406 10000.0 3.267831814940301
470.8191437316772 410.42653163787935 686.9395934918865 1713.076600106794 1.0 1.0 1.0 1.0 1.0 1.0 1.0 1.0 1.0 0.8668973977559498 -0.16367101613495788 -0.9865149763066704 -0.15331475811285908 -0.9881774056032628 0.5777259384398696 0.7224497433544801 -0.6914234363449404 0.18800273744488782 1.0 1.0 0.197375320224904 6.59042635786992 19.02659176240127 10000.0 3.2955144762399744
470.8191437316772 410.42653163787935 686.5566041826013 1706.3579135209914 1.0 1.0 1.0 1.0 1.0 1.0 1.0 1.0 1.0 0.8652251912329407 -0.16421301774655722 -0.9864249007413433 -0.05691120906925033 -0.9983792437156714 0.5869231768334602 0.7117429975177251 -0.7024399657511549 0.17681630926096958 1.0 1.0 0.197375320224904 6.729593616948402 17.86943279431686 10000.0 3.1985346290057834
470.8191437316772 410.42653163787935 686.0593064459548 1699.774825965031 1.0 1.0 1.0 1.0 1.0 1.0 1.0 1.0 1.0 0.8635628360636696 -0.16465858707580777 -0.986350622092468 -0.07532709372834394 -0.9971588784895019 0.5784861305172716 0.7842306636184666 -0.6204693918643687 0.18930472593413694 1.0 1.0 0.197375320224904 6.601844197519026 19.16159544540645 10000.0 3.2169911662975017
470.8191437316772 410.42653163787935 686.1135981178522 1693.098243159611 1.0 1.0 1.0 1.0 1.0 1.0 1.0 1.0 1.0 0.8618813022794836 -0.1655328558109676 -0.9862042758207172 0.008131386756100135 -0.9999669397282206 0.5834519527132369 0.7703097006741771 -0.6376699499327686 0.17900564883318038 1.0 1.0 0.197375320224904 6.676803542359638 18.095523136721322 10000.0 3.1334611772238894
470.8191437316772 410.42653163787935 686.0267905875194 1686.5760932139256 1.0 1.0 1.0 1.0 1.0 1.0 1.0 1.0 1.0 0.8602143656737165 -0.16629028712791413 -0.9860768430537834 -0.013308470863157581 -0.999911438380062 0.573197985896768 0.818268622123866 -0.5748360305752501 0.18991929514468908 1.0 1.0 0.197375320224904 6.5227276090088875 19.225344313628952 10000.0 3.154901517340115
470.8191437316772 410.42653163787935 686.3418362030542 1680.0117497156004 1.0 1.0 1.0 1.0 1.0 1.0 1.0 1.0 1.0 0.8585357716775024 -0.16736394003171395 -0.9858951828551861 0.04793829077185513 -0.9988502992330097 0.5764902783949242 0.8001578039993847 -0.5997895370035078 0.1809017468011329 1.0 1.0 0.197375320224904 6.571899215894194 18.29147869422588 10000.0 3.09363598280183
470.8191437316772 410.42653163787935 686.5049224416439 1673.576150971715 1.0 1.0 1.0 1.0 1.0 1.0 1.0 1.0 1.0 0.8568659128493479 -0.16831624440860385 -0.9857330479740359 0.02533313603476716 -0.9996790646095596 0.5674586499444099 0.8316417793059739 -0.5553124804223237 0.19173187886509413 1.0 1.0 0.197375320224904 6.437664818357591 19.41345259607246 10000.0 3.1162568071071033
470.8191437316772 410.42653163787935 686.9800811506387 1667.082160046094 1.0 1.0 1.0 1.0 1.0 1.0 1.0 1.0 1.0 0.8551769450431388 -0.16952318696477434 -0.9855261990841776 0.07297390315037697 -0.997333850553063 0.5724336229290228 0.7982434093532824 -0.6023350059759502 0.1813108511527386 1.0 1.0 0.197375320224904 6.511351160917473 18.33377647578432 10000.0 3.068553828086552
470.8191437316772 410.42653163787935 687.22540623442 1660.6939994648399 1.0 1.0 1.0 1.0 1.0 1.0 1.0 1.0 1.0 0.8534878126892838 -0.17055200565501366 -0.9853486760365856 0.03837479946807017 -0.9992634161049755 0.5644138474244701 0.820984852554572 -0.5709499731814931 0.193442186232188 1.0 1.0 0.197375320224904 6.392869465945864 19.59107121562725 10000.0 3.1032084292583626
470.8191437316772 410.42653163787935 687.7163459937814 1654.2257978389255 1.0 1.0 1.0 1.0 1.0 1.0 1.0 1.0 1.0 0.8517708680406313 -0.17179034660610973 -0.9851335324781878 0.07568281639155518 -0.9971319427753993 0.5707810953113712 0.7703075966752961 -0.6376724915694022 0.18208568946865045 1.0 1.0 0.197375320224904 6.486806157178177 18.413905719740434 10000.0 3.065837399873556
470.8191437316772 410.42653163787935 687.9198407975954 1647.8388743572666 1.0 1.0 1.0 1.0 1.0 1.0 1.0 1.0 1.0 0.8500444090902186 -0.17280782745423076 -0.9849555597947294 0.03184500264616697 -0.999492819287095 0.5642294894723775 0.7805615984015734 -0.6250788679045076 0.19357436151805807 1.0 1.0 0.197375320224904 6.390164449820012 19.60480293466423 10000.0 3.1097422661274656
470.8191437316772 410.42653163787935 688.2527011012301 1641.3605589287372 1.0 1.0 1.0 1.0 1.0 1.0 1.0 1.0 1.0 0.8482809402492126 -0.17394818564066142 -0.9847548063920897 0.051313000097596546 -0.99868262026581 0.5707847987757825 0.7183565690925336 -0.6956750963212669 0.184021747245237 1.0 1.0 0.197375320224904 6.486861087865036 18.614223965395546 10000.0 3.0902571087095905
470.8191437316772 410.42653163787935 688.2908405158364 1634.9042743923717 1.0 1.0 1.0 1.0 1.0 1.0 1.0 1.0 1.0 0.8464904641788031 -0.1748671245632942 -0.9845920417853099 0.0059072286764340785 -0.9999825521724688 0.5687273369664925 0.7290255351758518 -0.6844865002770784 0.19537857539422787 1.0 1.0 0.197375320224904 6.456397186469987 19.79231634394544 10000.0 3.135685390557017
470.8191437316772 410.42653163787935 688.4509363776909 1628.32911027037 1.0 1.0 1.0 1.0 1.0 1.0 1.0 1.0 1.0 0.8446535599246043 -0.17590749762209118 -0.9844067006478237 0.024341358378295073 -0.9997037052408576 0.5768382691311023 0.6478062268728979 -0.7618051538449314 0.18174639656310987 1.0 1.0 0.197375320224904 6.5771128860802355 18.378815161277238 10000.0 3.1172488908542304
470.8191437316772 410.42653163787935 688.1621910449256 1621.8166770442047 1.0 1.0 1.0 1.0 1.0 1.0 1.0 1.0 1.0 0.8427918516588426 -0.17659640308704616 -0.9842833486434267 -0.044294034206520644 -0.9990185376326666 0.5729363063129734 0.6834831197825165 -0.7299663176971649 0.19465521093918348 1.0 1.0 0.197375320224904 6.518831213680434 19.717120060526813 10000.0 3.185901184463537
470.8191437316772 410.42653163787935 687.9945674853303 1615.1707563769621 1.0 1.0 1.0 1.0 1.0 1.0 1.0 1.0 1.0 0.8408777482166905 -0.1774073497738126 -0.9841375067774991 -0.025214003674125 -0.9996820764716757 0.5815511903864987 0.599099125116792 -0.8006748642765642 0.17798171096229742 1.0 1.0 0.197375320224904 6.648034233742652 17.989759717292625 10000.0 3.166809329645437
470.8191437316772 410.42653163787935 687.2996664856267 1608.6652841801983 1.0 1.0 1.0 1.0 1.0 1.0 1.0 1.0 1.0 0.8389557588492507 -0.1777874015790238 -0.9840689202691948 -0.10621368465137496 -0.9943433276252113 0.5745228049725482 0.6635521279755071 -0.7481300511670255 0.1927153270328037 1.0 1.0 0.197375320224904 6.542480867549769 19.51557067658175 10000.0 3.2480070644970134
470.8191437316772 410.42653163787935 686.8014199003686 1602.017416188209 1.0 1.0 1.0 1.0 1.0 1.0 1.0 1.0 1.0 0.8369812061568807 -0.17834936807523447 -0.9839672265411915 -0.07473870806116549 -0.9972031515781264 0.5827728121229083 0.5973284637401637 -0.801996699747459 0.1785767741276132 1.0 1.0 0.197375320224904 6.666513218965217 18.051219440263242 10000.0 3.216401117308164
470.8191437316772 410.42653163787935 685.9178879756332 1595.5057095939408 1.0 1.0 1.0 1.0 1.0 1.0 1.0 1.0 1.0 0.8350044474602782 -0.1785879055720707 -0.9839239604681762 -0.13445163431630106 -0.9909201572425882 0.5764551863563588 0.6756257194935944 -0.7372447945959082 0.19378193258892584 1.0 1.0 0.197375320224904 6.571373633561109 19.62636901180487 10000.0 3.2764527048692558
470.8191437316772 410.42653163787935 685.3786356383894 1588.827286346433 1.0 1.0 1.0 1.0 1.0 1.0 1.0 1.0 1.0 0.832974570566337 -0.17913176886069646 -0.983825090849404 -0.08048351390795169 -0.9967559400319762 0.5849903394769684 0.6254028979330083 -0.7803020025970683 0.18106799857494127 1.0 1.0 0.197375320224904 6.70015896498541 18.3086668796751 10000.0 3.222163311703832
470.8191437316772 410.42653163787935 684.5872318448788 1582.2684201246527 1.0 1.0 1.0 1.0 1.0 1.0 1.0 1.0 1.0 0.8309445276437044 -0.1794590715710292 -0.983765440351949 -0.11979278163153449 -0.9927989169358413 0.5787918156026115 0.7025733427804847 -0.711611339155199 0.19541114798210235 1.0 1.0 0.197375320224904 6.606439743129032 19.795702898514808 10000.0 3.261673811966188
470.8191437316772 410.42653163787935 684.2258699603368 1575.5466901282095 1.0 1.0 1.0 1.0 1.0 1.0 1.0 1.0 1.0 0.8288662413527774 -0.18016562377205414 -0.9836362884780261 -0.05368272993726938 -0.9985580426327165 0.5870439647758604 0.6606157162469067 -0.7507242339551763 0.18276153665276196 1.0 1.0 0.197375320224904 6.7314364408113185 18.483816974090278 10000.0 3.19530120115482
470.8191437316772 410.42653163787935 683.6486479063346 1568.9486070328605 1.0 1.0 1.0 1.0 1.0 1.0 1.0 1.0 1.0 0.8267911518824884 -0.18068415302486865 -0.9835411719118249 -0.08715043589158977 -0.9961951623672471 0.5799108410727153 0.7299354758023499 -0.6835160577230041 0.19590442505613326 1.0 1.0 0.197375320224904 6.623283614096248 19.84699413673695 10000.0 3.2288537890633546
470.8191437316772 410.42653163787935 683.469869298518 1562.2361982145621 1.0 1.0 1.0 1.0 1.0 1.0 1.0 1.0 1.0 0.8246805720688604 -0.18155486138614152 -0.983380817540722 -0.026624604678155972 -0.9996455023785842 0.585951872356126 0.6907059663203151 -0.7231357189971462 0.18345349587007553 1.0 1.0 0.197375320224904 6.714789195096458 18.555413410344038 10000.0 3.1682204048338103
470.8191437316772 410.42653163787935 683.072920800607 1555.6540560313604 1.0 1.0 1.0 1.0 1.0 1.0 1.0 1.0 1.0 0.8225756295351057 -0.18223419862346873 -0.9832551534836023 -0.060197518499836046 -0.9981864849648395 0.57797068210806 0.7497955195724695 -0.6616696145577871 0.19625463532984266 1.0 1.0 0.197375320224904 6.594100683935493 19.88341546186127 10000.0 3.201826588209097
470.8191437316772 410.42653163787935 683.0149328144141 1548.9820228579229 1.0 1.0 1.0 1.0 1.0 1.0 1.0 1.0 1.0 0.8204394822339423 -0.18321795273475802 -0.9830723176835384 -0.008690873485002006 -0.9999622336458851 0.5831538490436792 0.7083679066113987 -0.7058434025213983 0.1842022315079439 1.0 1.0 0.197375320224904 6.672285161321618 18.63290564894795 10000.0 3.1502836364839832
470.8191437316772 410.42653163787935 682.7375839262586 1542.4301452827494 1.0 1.0 1.0 1.0 1.0 1.0 1.0 1.0 1.0 0.8183062446569462 -0.18400984182522348 -0.9829244010153865 -0.04229333094086496 -0.9991052367783518 0.5755445020481796 0.7565620607088959 -0.6539218977033182 0.19693074997753235 1.0 1.0 0.197375320224904 6.55774520439922 19.95374507700917 10000.0 3.183898603219418
470.8191437316772 410.42653163787935 682.7509060247071 1535.7921068940752 1.0 1.0 1.0 1.0 1.0 1.0 1.0 1.0 1.0 0.8161401517253895 -0.18506940466980312 -0.9827254527359941 0.002006928981022697 -0.9999979861160047 0.5808901683306698 0.7086975364998374 -0.7055124391242593 0.1846197381203003 1.0 1.0 0.197375320224904 6.638051756940496 18.676126127491088 10000.0 3.1395857232615287
470.8191437316772 410.42653163787935 682.5145196950098 1529.263815834277 1.0 1.0 1.0 1.0 1.0 1.0 1.0 1.0 1.0 0.8139720453906407 -0.18591155651225352 -0.9825664828169091 -0.03618581236182718 -0.9993450790311196 0.5738584327454462 0.7497040165841055 -0.661773290121065 0.1972834418399354 1.0 1.0 0.197375320224904 6.532569376463619 19.990439901940025 10000.0 3.177786367637415
470.8191437316772 410.42653163787935 682.5267987983111 1522.6441325765452 1.0 1.0 1.0 1.0 1.0 1.0 1.0 1.0 1.0 0.8117665399491387 -0.1869899544888569 -0.9823618258667501 0.001854935001924853 -0.9999982796065895 0.5796725904716059 0.6942117593856291 -0.7197708198660943 0.18434118500669605 1.0 1.0 0.197375320224904 6.61969464621095 18.64728941490487 10000.0 3.1397377175241283
470.8191437316772 410.42653163787935 682.2370812658128 1516.1292128668572 1.0 1.0 1.0 1.0 1.0 1.0 1.0 1.0 1.0 0.8095540085600521 -0.18780460323532694 -0.9822064095716447 -0.04442594867208252 -0.9990126801420418 0.573106042364014 0.7332140495410686 -0.6799979099641317 0.19702347084095706 1.0 1.0 0.197375320224904 6.521358376313737 19.963391442153895 10000.0 3.1860332289122892
470.8191437316772 410.42653163787935 682.1638905143576 1509.5119582493223 1.0 1.0 1.0 1.0 1.0 1.0 1.0 1.0 1.0 0.8072977426044741 -0.18883202651451989 -0.9820094020743486 -0.011059915197298466 -0.9999388372674743 0.579537436432314 0.6723126077814915 -0.740267355364297 0.18350573647122648 1.0 1.0 0.197375320224904 6.617659371664865 18.560819464011416 10000.0 3.1526527942774867
470.8191437316772 410.42653163787935 681.7415420723 1503.0007123426144 1.0 1.0 1.0 1.0 1.0 1.0 1.0 1.0 1.0 0.8050313812576002 -0.18955102791468353 -0.9818708712536933 -0.06472843262083638 -0.9979029161248352 0.5733457938164099 0.716324525631281 -0.6977672778076658 0.196543189913722 1.0 1.0 0.197375320224904 6.524929230584029 19.91342860337885 10000.0 3.206366371183566
470.8191437316772 410.42653163787935 681.5326376392477 1496.3737176663433 1.0 1.0 1.0 1.0 1.0 1.0 1.0 1.0 1.0 0.8027155298578308 -0.19048384854222242 -0.9816903297091928 -0.03150760257977838 -0.9995035122397894 0.5803754383996769 0.654787756755075 -0.7558128032811146 0.18266570000439497 1.0 1.0 0.197375320224904 6.6302865323811995 18.473902315646967 10000.0 3.1731054715850204
470.8191437316772 410.42653163787935 680.9595761480058 1489.8586174343186 1.0 1.0 1.0 1.0 1.0 1.0 1.0 1.0 1.0 0.8003900164089224 -0.19108946133679341 -0.9815726248047131 -0.08762066990655995 -0.9961539129096094 0.5743736443911427 0.7074472663165843 -0.7067661320275554 0.19613847319560773 1.0 1.0 0.197375320224904 6.540254620889892 19.871334203481176 10000.0 3.229325828839992
470.8191437316772 410.42653163787935 680.6324337706858 1483.2169739087697 1.0 1.0 1.0 1.0 1.0 1.0 1.0 1.0 1.0 0.7980123451145724 -0.19194068516182416 -0.9814065280909892 -0.04919659479945534 -0.9987891144081108 0.5816611251176202 0.6502718585961635 -0.7597015926782641 0.18247923915942854 1.0 1.0 0.197375320224904 6.6496955460761376 18.454613275158582 10000.0 3.1908091151614077
470.8191437316772 410.42653163787935 679.963949780709 1476.6959917505917 1.0 1.0 1.0 1.0 1.0 1.0 1.0 1.0 1.0 0.7956291928713437 -0.1924785911631702 -0.9813011729045478 -0.10197833891687913 -0.9947866195279037 0.5753713693401248 0.7094894796835504 -0.7047160266507105 0.19631447704192517 1.0 1.0 0.197375320224904 6.555156684025886 19.889639427706175 10000.0 3.2437485801883343
470.8191437316772 410.42653163787935 679.5909421647416 1470.037508678475 1.0 1.0 1.0 1.0 1.0 1.0 1.0 1.0 1.0 0.7931924161450461 -0.19331044541619685 -0.9811376415636043 -0.05593221369528327 -0.9984345684475999 0.5829319136353706 0.6578222930833704 -0.7531731744575987 0.18298278148196712 1.0 1.0 0.197375320224904 6.668922814310815 18.506706948838616 10000.0 3.1975540715902024
470.8191437316772 410.42653163787935 678.9177347588177 1463.5027648890803 1.0 1.0 1.0 1.0 1.0 1.0 1.0 1.0 1.0 0.7907539286047447 -0.193861312987177 -0.981028945203396 -0.10247734546247901 -0.9947353385031437 0.5763186557635519 0.71890669748386 -0.6951065819806699 0.19678935035107026 1.0 1.0 0.197375320224904 6.569329083279608 19.93903504346946 10000.0 3.2442502147977152
470.8191437316772 410.42653163787935 678.5711462535719 1456.8341114184561 1.0 1.0 1.0 1.0 1.0 1.0 1.0 1.0 1.0 0.7882645435718871 -0.19473738640562682 -0.9808554176512997 -0.051902735029449865 -0.9986521446912647 0.5835080435520726 0.6713779692697908 -0.7411151208679876 0.1836767011565219 1.0 1.0 0.197375320224904 6.677653981993552 18.57851228203691 10000.0 3.193518720324482
470.8191437316772 410.42653163787935 677.9512794103391 1450.2903596670476 1.0 1.0 1.0 1.0 1.0 1.0 1.0 1.0 1.0 0.7857758396733538 -0.1953537410510406 -0.9807328463232803 -0.09430436484108191 -0.9955434128012299 0.5765667793238165 0.7299897752895311 -0.6834580659943519 0.19720117352016442 1.0 1.0 0.197375320224904 6.573045100058385 19.981880053078115 10000.0 3.236037360516512
470.8191437316772 410.42653163787935 677.6617192199436 1443.6245948838439 1.0 1.0 1.0 1.0 1.0 1.0 1.0 1.0 1.0 0.7832403899786726 -0.19630134253179463 -0.9805436160213451 -0.04339897703292694 -0.9990578205451852 0.5831383992604917 0.6843367952500491 -0.7291660652189543 0.18421536830001983 1.0 1.0 0.197375320224904 6.672051052627012 18.634265470831018 10000.0 3.1850052656363506
470.8191437316772 410.42653163787935 677.1068037827806 1437.0862076413375 1.0 1.0 1.0 1.0 1.0 1.0 1.0 1.0 1.0 0.7807073462283016 -0.19699361989671496 -0.9804047703474257 -0.08456636564427861 -0.9964178489979584 0.5758218146281581 0.7386836385619141 -0.6740522844119227 0.19755554179236978 1.0 1.0 0.197375320224904 6.561892933854595 20.01875340058659 10000.0 3.226260140638916
470.8191437316772 410.42653163787935 676.8694283929239 1430.43405303358 1.0 1.0 1.0 1.0 1.0 1.0 1.0 1.0 1.0 0.7781293833893157 -0.19800886938449305 -0.9802002283437169 -0.03566128832268392 -0.9993639339675844 0.5821038063082448 0.6925031485550731 -0.7214148523847498 0.1845330581561586 1.0 1.0 0.197375320224904 6.65638851038751 18.667152410470035 10000.0 3.1772615048147723
470.8191437316772 410.42653163787935 676.3609665860586 1423.9088316013908 1.0 1.0 1.0 1.0 1.0 1.0 1.0 1.0 1.0 0.7755534736702416 -0.19876109017950555 -0.9800479728210525 -0.07768703888232824 -0.996977795133721 0.574691661595922 0.7424205604024274 -0.6699341098136037 0.1977322205680132 1.0 1.0 0.197375320224904 6.545001768383526 20.03713949616605 10000.0 3.2193580492533913
470.8191437316772 410.42653163787935 676.1484262510647 1417.2723481668827 1.0 1.0 1.0 1.0 1.0 1.0 1.0 1.0 1.0 0.7729316230860745 -0.19982037975293385 -0.9798325447929321 -0.03200963627556728 -0.9994875602955275 0.5810116845939789 0.6946865151017526 -0.7193126203089881 0.1846270736128066 1.0 1.0 0.197375320224904 6.639885975715177 18.67688556269987 10000.0 3.173607758655865
470.8191437316772 410.42653163787935 675.6505035254648 1410.7609281761538 1.0 1.0 1.0 1.0 1.0 1.0 1.0 1.0 1.0 0.7703101270536437 -0.200600690951245 -0.9796730897548851 -0.07624654390453056 -0.9970889952971171 0.5737149369801704 0.7415739752150917 -0.6708711048209534 0.19770569637861946 1.0 1.0 0.197375320224904 6.530430103471971 20.034379168319187 10000.0 3.2179132684324707
470.8191437316772 410.42653163787935 675.4287025449926 1404.136653255466 1.0 1.0 1.0 1.0 1.0 1.0 1.0 1.0 1.0 0.7676400567721553 -0.2016738941966268 -0.9794527249436635 -0.033464304448491605 -0.9994399133153422 0.5802229324049829 0.6923832801724583 -0.7215298977434179 0.18449076096093653 1.0 1.0 0.197375320224904 6.627987168046797 18.662773616460495 10000.0 3.1750632070754192
470.8191437316772 410.42653163787935 674.9051747075717 1397.63645125283 1.0 1.0 1.0 1.0 1.0 1.0 1.0 1.0 1.0 0.7649686241191143 -0.2024493120124336 -0.9792927427821021 -0.08028028384872232 -0.9967723290828094 0.5730987947393325 0.7384070093232338 -0.6743553133047279 0.1975415827732543 1.0 1.0 0.197375320224904 6.521250453066968 20.017300810724564 10000.0 3.221959421885289
470.8191437316772 410.42653163787935 674.6464809938054 1391.0188976776612 1.0 1.0 1.0 1.0 1.0 1.0 1.0 1.0 1.0 0.7622453038679384 -0.20351143031782767 -0.9790725702061068 -0.039062210946295396 -0.9992367805860567 0.5798660037697222 0.6885422792052125 -0.7251962008635258 0.18418720140555767 1.0 1.0 0.197375320224904 6.62260807822512 18.631349854181185 10000.0 3.180664805250182
470.8191437316772 410.42653163787935 674.0750352884022 1384.5267031930655 1.0 1.0 1.0 1.0 1.0 1.0 1.0 1.0 1.0 0.7595201051900708 -0.2042608657646397 -0.9789164922081351 -0.08768141839993651 -0.9961485676681844 0.572833130333919 0.7355226021185832 -0.6775001858100914 0.19729414034285853 1.0 1.0 0.197375320224904 6.5172954068416145 19.991553080326753 10000.0 3.2293868120430447
470.8191437316772 410.42653163787935 673.7674149980148 1377.912105403535 1.0 1.0 1.0 1.0 1.0 1.0 1.0 1.0 1.0 0.7567401698972314 -0.2053004952580347 -0.9786989867404613 -0.046456061743501934 -0.9989203343246567 0.579808850534096 0.6861946129612823 -0.7274180044121235 0.18384807679528992 1.0 1.0 0.197375320224904 6.621747062544722 18.596248783047955 10000.0 3.188065441562104
470.8191437316772 410.42653163787935 673.1444348026389 1371.4257355778464 1.0 1.0 1.0 1.0 1.0 1.0 1.0 1.0 1.0 0.7539591685501825 -0.2060199089390754 -0.9785478001205332 -0.09560456531542622 -0.995419392563179 0.5727607431795678 0.7348973305404591 -0.6781783788683527 0.19705055092571921 1.0 1.0 0.197375320224904 6.516218062606067 19.96620883179265 10000.0 3.2373434625551902
470.8191437316772 410.42653163787935 672.7924449322574 1364.813259736543 1.0 1.0 1.0 1.0 1.0 1.0 1.0 1.0 1.0 0.7511217783871604 -0.20704081449778347 -0.9783323060862779 -0.053155919845604256 -0.9985862247124019 0.5798148626799289 0.6872181805245264 -0.7264510804978952 0.18361514031272752 1.0 1.0 0.197375320224904 6.621837631705582 18.572141332118218 10000.0 3.194773637785403
470.8191437316772 410.42653163787935 672.1314792632874 1358.3313271293707 1.0 1.0 1.0 1.0 1.0 1.0 1.0 1.0 1.0 0.7482847616139021 -0.2077428055149185 -0.9781834831752122 -0.10144441861395469 -0.9948412084006556 0.572715511673253 0.7371878720518129 -0.675687828290343 0.19688988053424716 1.0 1.0 0.197375320224904 6.515544945703226 19.94949327469037 10000.0 3.243211876506758
470.8191437316772 410.42653163787935 671.7522755222059 1351.7225858362235 1.0 1.0 1.0 1.0 1.0 1.0 1.0 1.0 1.0 0.7453913401557608 -0.2087610041108546 -0.9779666881661296 -0.05728489333834043 -0.9983578722057612 0.5796670724441606 0.6915532503619898 -0.7223254819773196 0.18351699416048284 1.0 1.0 0.197375320224904 6.619611541246084 18.561984466035945 10000.0 3.1989089239109543
470.8191437316772 410.42653163787935 671.0759175129949 1345.2455012918062 1.0 1.0 1.0 1.0 1.0 1.0 1.0 1.0 1.0 0.7424998452930922 -0.20946750696756858 -0.9778156081413262 -0.10385850553145572 -0.9945920826292418 0.5724975824350426 0.7416473762217706 -0.6707899591849624 0.19678996699187357 1.0 1.0 0.197375320224904 6.512302538438414 19.939099191767667 10000.0 3.245638784454358
470.8191437316772 410.42653163787935 670.687980051684 1338.6440013639797 1.0 1.0 1.0 1.0 1.0 1.0 1.0 1.0 1.0 0.7395530218565005 -0.21050079206048944 -0.9775936868361551 -0.05866384264761937 -0.9982777937857855 0.5792205102394996 0.6977783650879694 -0.7163137254130766 0.18346827005391164 1.0 1.0 0.197375320224904 6.612888685815109 18.55694228751588 10000.0 3.2002901965322175
470.8191437316772 410.42653163787935 670.0115388817521 1332.174448403309 1.0 1.0 1.0 1.0 1.0 1.0 1.0 1.0 1.0 0.7366091607594791 -0.2112269757440808 -0.9774370387487931 -0.10399075308547467 -0.9945782640258714 0.571994381440804 0.7469056346107631 -0.6649300511983899 0.19668712857905235 1.0 1.0 0.197375320224904 6.504820379326517 19.92840127635976 10000.0 3.2457717520044187
470.8191437316772 410.42653163787935 669.6239334604055 1325.583614085215 1.0 1.0 1.0 1.0 1.0 1.0 1.0 1.0 1.0 0.7336109246904161 -0.21228444631892496 -0.9772079174111656 -0.058708329252502515 -0.9982751785336444 0.5785112653549487 0.7043041193156385 -0.709898378301446 0.18338713777780558 1.0 1.0 0.197375320224904 6.602221972277364 18.54854658026307 10000.0 3.200334759942748
470.8191437316772 410.42653163787935 668.9512898317835 1319.1248454258093 1.0 1.0 1.0 1.0 1.0 1.0 1.0 1.0 1.0 0.7306161969021272 -0.21303436118058636 -0.9770447077572139 -0.10358402910890575 -0.9946207060551099 0.5712457136934008 0.7519223639227409 -0.6592516656276548 0.19654857216028132 1.0 1.0 0.197375320224904 6.4937001814717545 19.91398845527205 10000.0 3.2453628195878848
470.8191437316772 410.42653163787935 668.5633441751523 1312.5464675651242 1.0 1.0 1.0 1.0 1.0 1.0 1.0 1.0 1.0 0.72756703341834 -0.21411584376646348 -0.9768082746620114 -0.058870563735589035 -0.9982656243332503 0.5776846774253505 0.7101600889077577 -0.704040231891989 0.18321990321117987 1.0 1.0 0.197375320224904 6.589807061701471 18.531241675633282 10000.0 3.2004972755121734
470.8191437316772 410.42653163787935 667.8900049406041 1306.1005967279334 1.0 1.0 1.0 1.0 1.0 1.0 1.0 1.0 1.0 0.7245217182600228 -0.2148852534664932 -0.9766393028353103 -0.10389523856075075 -0.9945882461624029 0.5703857387018371 0.7566923388844351 -0.653771140594018 0.19645889629510904 1.0 1.0 0.197375320224904 6.480944111356717 19.90466068901584 10000.0 3.2456757172841866
470.8191437316772 410.42653163787935 667.4986248715286 1299.5339506638636 1.0 1.0 1.0 1.0 1.0 1.0 1.0 1.0 1.0 0.7214207584434589 -0.21598856719617682 -0.9763958924742272 -0.05949563311864057 -0.9982285658303974 0.5769174139313308 0.7152669531918524 -0.6988513330255902 0.1829291270684199 1.0 1.0 0.197375320224904 6.578299087851774 18.501155690884335 10000.0 3.2011234424859696
470.8191437316772 410.42653163787935 666.8187359320466 1293.1027913604732 1.0 1.0 1.0 1.0 1.0 1.0 1.0 1.0 1.0 0.7183248883277218 -0.21677164002701949 -0.9762223394698547 -0.1051320834534227 -0.994458267112674 0.5694440799514966 0.7605323864652873 -0.6492999993357577 0.19619431989606384 1.0 1.0 0.197375320224904 6.466997677099828 19.87714237942906 10000.0 3.246919373201733
470.8191437316772 410.42653163787935 666.414768123508 1286.5496655292745 1.0 1.0 1.0 1.0 1.0 1.0 1.0 1.0 1.0 0.7151717888716054 -0.21788743847271247 -0.9759739054686861 -0.06152825964137056 -0.9981053417678437 0.5760672366557353 0.7196555341668074 -0.6943312697431155 0.1825593234788927 1.0 1.0 0.197375320224904 6.565565333606827 18.462897688146242 10000.0 3.2031598010456204
470.8191437316772 410.42653163787935 665.7205753447281 1280.1339223151697 1.0 1.0 1.0 1.0 1.0 1.0 1.0 1.0 1.0 0.7120246742258012 -0.21867622000189083 -0.9757974742771599 -0.10757357992144848 -0.9941971257768168 0.5685103334122404 0.764092008011867 -0.6451072804521686 0.1958839899168161 1.0 1.0 0.197375320224904 6.453190265554081 19.844869074518943 10000.0 3.2493747963485347
470.8191437316772 410.42653163787935 665.298691177112 1273.594278725606 1.0 1.0 1.0 1.0 1.0 1.0 1.0 1.0 1.0 0.7088185997116159 -0.21979919582906854 -0.9755451365841022 -0.06437797407351696 -0.9979255866316835 0.5752429860567154 0.7239837020427758 -0.6898170766054122 0.1821563443464298 1.0 1.0 0.197375320224904 6.553237713482148 18.421213595622625 10000.0 3.206015180143621
470.8191437316772 410.42653163787935 664.5867609189585 1267.1941590654444 1.0 1.0 1.0 1.0 1.0 1.0 1.0 1.0 1.0 0.7056197450257649 -0.2205901063196625 -0.9753666003067154 -0.1105551392186489 -0.9938699920977316 0.5675894611428276 0.7678689421886445 -0.6406069681342001 0.19553883520549498 1.0 1.0 0.197375320224904 6.439594424873473 19.808978903288146 10000.0 3.252374249470654
470.8191437316772 410.42653163787935 664.1450014434024 1260.6680058935397 1.0 1.0 1.0 1.0 1.0 1.0 1.0 1.0 1.0 0.702360223513907 -0.22171833343346173 -0.9751107530016723 -0.06753608945362559 -0.9977168318823292 0.5744294575194191 0.7289361231732812 -0.6845817177905842 0.18179760713857385 1.0 1.0 0.197375320224904 6.541087574509879 18.384111205751676 10000.0 3.209180188778935
470.8191437316772 410.42653163787935 663.4169392773488 1254.282810607228 1.0 1.0 1.0 1.0 1.0 1.0 1.0 1.0 1.0 0.6991092456876038 -0.2225133641119198 -0.9749296399184898 -0.11328939728051327 -0.9935620325192676 0.5667059125879801 0.7723683232438865 -0.6351749154755935 0.19524814781622624 1.0 1.0 0.197375320224904 6.426569330675208 19.77875630720855 10000.0 3.2551257964950606
470.8191437316772 410.42653163787935 662.9589000096308 1247.7693124987366 1.0 1.0 1.0 1.0 1.0 1.0 1.0 1.0 1.0 0.6957960237666612 -0.22365119295336686 -0.9746692484584377 -0.07014831564493529 -0.9975365726689817 0.5736581237848954 0.734709986342569 -0.6783813352153065 0.1814621842179438 1.0 1.0 0.197375320224904 6.529583262360018 18.349424623110508 10000.0 3.2117986278131454
470.8191437316772 410.42653163787935 662.2189841254557 1241.398688517711 1.0 1.0 1.0 1.0 1.0 1.0 1.0 1.0 1.0 0.692493047742242 -0.22445535846173043 -0.9744843724030756 -0.11536942260414225 -0.9933226546938244 0.5658145699940211 0.7775089955120273 -0.6288718167463686 0.19494319913594227 1.0 1.0 0.197375320224904 6.4134487932213835 19.7470548061609 10000.0 3.2572195511826334
470.8191437316772 410.42653163787935 661.7476513997875 1234.8982515101152 1.0 1.0 1.0 1.0 1.0 1.0 1.0 1.0 1.0 0.6891264774038917 -0.22560639337558477 -0.9742185356828625 -0.07231799947369898 -0.997381625533638 0.5728470284639856 0.7412586908504285 -0.6712194523691256 0.1811534420410046 1.0 1.0 0.197375320224904 6.517502269121688 18.317500994923467 10000.0 3.213973837779372
470.8191437316772 410.42653163787935 660.9984404853982 1228.5408264202429 1.0 1.0 1.0 1.0 1.0 1.0 1.0 1.0 1.0 0.6857709619418999 -0.22642331331536528 -0.9740289950444453 -0.11703824786609947 -0.9931274080078716 0.564996192711809 0.7833039867258045 -0.6216388536597923 0.1946693024278754 1.0 1.0 0.197375320224904 6.401419433811294 19.718584709933314 10000.0 3.2588997594100504
470.8191437316772 410.42653163787935 660.5171563619753 1222.0527202848095 1.0 1.0 1.0 1.0 1.0 1.0 1.0 1.0 1.0 0.6823509166229065 -0.22759207116878902 -0.9737565656472366 -0.07397619559511066 -0.9972600074630857 0.57206919199081 0.7483736632007951 -0.6632773629692353 0.18082624397268665 1.0 1.0 0.197375320224904 6.505932341494639 18.28367307566214 10000.0 3.215636488064001
470.8191437316772 410.42653163787935 659.760063950026 1215.7074607982254 1.0 1.0 1.0 1.0 1.0 1.0 1.0 1.0 1.0 0.6789423716245 -0.2284241900895627 -0.9735617029145751 -0.11847587316053879 -0.9929569313312878 0.5642364505996429 0.7894266596167571 -0.613844890087332 0.19435293086655236 1.0 1.0 0.197375320224904 6.39026657286832 19.685703507167958 10000.0 3.2603474572896207
470.8191437316772 410.42653163787935 659.2691913632626 1209.231856600324 1.0 1.0 1.0 1.0 1.0 1.0 1.0 1.0 1.0 0.6754688704835841 -0.2296117595687058 -0.9732823022472785 -0.07558651007229815 -0.9971392477959587 0.5712782018233917 0.7556998085824093 -0.6549181622985502 0.18044552744932796 1.0 1.0 0.197375320224904 6.4941824446434495 18.244317269466336 10000.0 3.217251324334128
470.8191437316772 410.42653163787935 658.504214195139 1202.899907029389 1.0 1.0 1.0 1.0 1.0 1.0 1.0 1.0 1.0 0.6720078021535185 -0.23045941691431623 -0.973081937534303 -0.11994013623506905 -0.9927811257875087 0.5633991557069328 0.7953885989997126 -0.6060998074420371 0.19394883674029217 1.0 1.0 0.197375320224904 6.377991489223996 19.643711212574313 10000.0 3.261822236708675
470.8191437316772 410.42653163787935 658.0012368270193 1196.4384367260266 1.0 1.0 1.0 1.0 1.0 1.0 1.0 1.0 1.0 0.668481325380242 -0.2316631618150286 -0.9727960626245687 -0.07760778100158379 -0.9969839679393095 0.5703906736745763 0.7627173694108705 -0.6467319494187385 0.18001767829578608 1.0 1.0 0.197375320224904 6.481017259202021 18.200095891274174 10000.0 3.219278551359128
470.8191437316772 410.42653163787935 657.2257469042415 1190.1212386187883 1.0 1.0 1.0 1.0 1.0 1.0 1.0 1.0 1.0 0.6649681288432052 -0.23252350127739266 -0.9725907779501626 -0.12184388541098445 -0.9925492771585473 0.5624856950329229 0.8009532304133253 -0.5987269182945248 0.19351958993262697 1.0 1.0 0.197375320224904 6.364619120294909 19.59911261425998 10000.0 3.2637400520905264
470.8191437316772 410.42653163787935 656.7078847184284 1183.6747757436463 1.0 1.0 1.0 1.0 1.0 1.0 1.0 1.0 1.0 0.6613887601750386 -0.23374051094285822 -0.9722990144724881 -0.08007480479288176 -0.9967888570993266 0.5694597836526469 0.7691764263799105 -0.6390364818235577 0.17951651029683746 1.0 1.0 0.197375320224904 6.4672300750847 18.14830541844829 10000.0 3.2217532791729036
470.8191437316772 410.42653163787935 655.9230402168986 1177.369419243231 1.0 1.0 1.0 1.0 1.0 1.0 1.0 1.0 1.0 0.6578219785266486 -0.23461628101519327 -0.9720880622055802 -0.12351946783335571 -0.9923421491935958 0.5617603269264714 0.8061672295413215 -0.5916877538141805 0.19293937590832866 1.0 1.0 0.197375320224904 6.354014596214636 19.538840803107707 10000.0 3.265428388290792
470.8191437316772 410.42653163787935 655.3866418020051 1170.9387123109661 1.0 1.0 1.0 1.0 1.0 1.0 1.0 1.0 1.0 0.6541896278486588 -0.23584249185316672 -0.9717912939703097 -0.08312337773317849 -0.9965392636892072 0.5685001092232845 0.7755282277081255 -0.6313128923346124 0.17895087359677686 1.0 1.0 0.197375320224904 6.4530391993371365 18.089864343729925 10000.0 3.224812053623137
470.8191437316772 410.42653163787935 654.587886906279 1164.6465306168188 1.0 1.0 1.0 1.0 1.0 1.0 1.0 1.0 1.0 0.6505693520334623 -0.23672837785290451 -0.9715758720342599 -0.12593338948799201 -0.9920386995536342 0.5609839039139571 0.8116598312863026 -0.5841303949259025 0.19235725425133077 1.0 1.0 0.197375320224904 6.342677656605941 19.478384913435733 10000.0 3.267861308831698
470.8191437316772 410.42653163787935 654.0301383754702 1158.2291001265546 1.0 1.0 1.0 1.0 1.0 1.0 1.0 1.0 1.0 0.6468822283530788 -0.23796145252241682 -0.9712745992320717 -0.08658510342330415 -0.9962444578842965 0.5677269014943339 0.7824533502918538 -0.6227092055020975 0.17838229030078656 1.0 1.0 0.197375320224904 6.441622274007824 18.031131146032823 10000.0 3.2282863114370635
470.8191437316772 410.42653163787935 653.2158406955248 1151.9534302139216 1.0 1.0 1.0 1.0 1.0 1.0 1.0 1.0 1.0 0.6432101005808442 -0.23885482440119288 -0.97105528826132 -0.12867601058382094 -0.9916866865599399 0.5599963628811881 0.8176874235880379 -0.5756624682102843 0.19180216144679219 1.0 1.0 0.197375320224904 6.328278878485933 19.420749183247636 10000.0 3.270626428810044
470.8191437316772 410.42653163787935 652.6449691962779 1145.5465544738827 1.0 1.0 1.0 1.0 1.0 1.0 1.0 1.0 1.0 0.639467769728036 -0.24010611211331687 -0.9707466481661563 -0.08875132866104667 -0.9960538146410056 0.567092002618782 0.7900365392514189 -0.6130597578112931 0.17781477575759985 1.0 1.0 0.197375320224904 6.432258624849514 17.97252061745242 10000.0 3.2304609099035324
470.8191437316772 410.42653163787935 651.8227913122363 1139.2800144833247 1.0 1.0 1.0 1.0 1.0 1.0 1.0 1.0 1.0 0.6357406845695619 -0.24101925120916362 -0.9705203349474827 -0.13008638944948822 -0.9915026632742829 0.5594446827680338 0.8242837046572195 -0.5661769813729359 0.19114918717263496 1.0 1.0 0.197375320224904 6.320245242573075 19.352966646391774 10000.0 3.272048762615956
470.8191437316772 410.42653163787935 651.2435398271928 1132.8837426312039 1.0 1.0 1.0 1.0 1.0 1.0 1.0 1.0 1.0 0.6319438504622239 -0.24229558984344138 -0.9702024773944967 -0.09019171074280345 -0.9959244224906257 0.5664260073281808 0.7982010513612897 -0.6023911367257421 0.1771981317162581 1.0 1.0 0.197375320224904 6.422447032802971 17.90885004416156 10000.0 3.2319070921999726
470.8191437316772 410.42653163787935 650.412927981715 1126.6255278744409 1.0 1.0 1.0 1.0 1.0 1.0 1.0 1.0 1.0 0.6281612594770225 -0.243229024248699 -0.9699688870077359 -0.1315696739367646 -0.991306925679516 0.5589532464077769 0.8313677074092566 -0.5557227141993358 0.19049663137436057 1.0 1.0 0.197375320224904 6.31309496044646 19.285245092955368 10000.0 3.2735449064906397
470.8191437316772 410.42653163787935 649.8242438894055 1120.2443754707067 1.0 1.0 1.0 1.0 1.0 1.0 1.0 1.0 1.0 0.6243124960115396 -0.24452875111256087 -0.9696420421368555 -0.0918634863217556 -0.9957716103006816 0.5654609545159233 0.8067255246296702 -0.5909263303585172 0.17660337482841926 1.0 1.0 0.197375320224904 6.40824897770206 17.847453001874648 10000.0 3.2335858375093105
470.8191437316772 410.42653163787935 648.9849097718703 1113.9952581165999 1.0 1.0 1.0 1.0 1.0 1.0 1.0 1.0 1.0 0.6204748513350493 -0.24548285509536366 -0.9694009324599542 -0.13311708898684074 -0.9911003181412412 0.55841236819156 0.8384864514605367 -0.5449224446809996 0.18984521168633162 1.0 1.0 0.197375320224904 6.305231912170837 19.21765886693219 10000.0 3.2751060536672574
470.8191437316772 410.42653163787935 648.3899557228425 1107.6223669129877 1.0 1.0 1.0 1.0 1.0 1.0 1.0 1.0 1.0 0.6165707117447261 -0.24681344522046042 -0.969063013048381 -0.0929528192398535 -0.9956705144752269 0.5649405763142502 0.8152521562872742 -0.5791061402445581 0.17585276301916264 1.0 1.0 0.197375320224904 6.400602519570408 17.76998597512218 10000.0 3.2346798515365287
470.8191437316772 410.42653163787935 647.5405969519587 1101.3814680633075 1.0 1.0 1.0 1.0 1.0 1.0 1.0 1.0 1.0 0.6126773398189094 -0.24778789877911014 -0.9688143048173027 -0.13485244448806075 -0.9908656913101768 0.5579441448108177 0.8454571663668888 -0.5340432377990295 0.18893761576819434 1.0 1.0 0.197375320224904 6.298430659586245 19.12352268692585 10000.0 3.276857198792338
470.8191437316772 410.42653163787935 646.9324030994799 1095.0174394699145 1.0 1.0 1.0 1.0 1.0 1.0 1.0 1.0 1.0 0.6087171936969027 -0.24914135056164696 -0.9684671328652917 -0.09513398103053046 -0.9954644773437586 0.5644243982941402 0.8238633811754948 -0.5667884342134032 0.1749979896326932 1.0 1.0 0.197375320224904 6.393024299947227 17.681794624266374 10000.0 3.2368707235037117
470.8191437316772 410.42653163787935 646.0683039154412 1088.7850188741972 1.0 1.0 1.0 1.0 1.0 1.0 1.0 1.0 1.0 0.6047675598950086 -0.2501307977461234 -0.9682120552951651 -0.1373321767518388 -0.9905250492686198 0.5575036808654054 0.8525965001299254 -0.522569811571815 0.18795380235691517 1.0 1.0 0.197375320224904 6.292037339508999 19.021519003455328 10000.0 3.2793602194417666
470.8191437316772 410.42653163787935 645.444576393757 1082.4297492517585 1.0 1.0 1.0 1.0 1.0 1.0 1.0 1.0 1.0 0.6007510445209425 -0.2515051440653478 -0.9678559616537311 -0.09767408424490918 -0.9952184550473923 0.5639321631645424 0.8327151782623348 -0.5537015729538142 0.17410270570252062 1.0 1.0 0.197375320224904 6.385803629552024 17.589452768921323 10000.0 3.239422713872926
470.8191437316772 410.42653163787935 644.564966801734 1076.205065420152 1.0 1.0 1.0 1.0 1.0 1.0 1.0 1.0 1.0 0.5967446069282121 -0.2525096172773623 -0.9675943846377159 -0.13991983384495055 -0.9901628351421807 0.5571236882486994 0.859892423429065 -0.5104752884609494 0.18683508117949077 1.0 1.0 0.197375320224904 6.2865254185313235 18.90557531481868 10000.0 3.281973105238948
470.8191437316772 410.42653163787935 643.9226900934098 1069.8596879004135 1.0 1.0 1.0 1.0 1.0 1.0 1.0 1.0 1.0 0.592672012766416 -0.25390134327443087 -0.9672301214723618 -0.10070505337133585 -0.9949163242330866 0.5633860977006612 0.8420151922554243 -0.5394538126763595 0.17331113753171157 1.0 1.0 0.197375320224904 6.377800188000424 17.507833148911427 10000.0 3.2424687053449825
470.8191437316772 410.42653163787935 643.0297338172907 1063.6412471369094 1.0 1.0 1.0 1.0 1.0 1.0 1.0 1.0 1.0 0.5886082437216271 -0.25492519118314805 -0.9669607783670625 -0.14214008376934745 -0.9898465520402862 0.5568271946304526 0.8673585247433026 -0.49768382488797225 0.1857214373258178 1.0 1.0 0.197375320224904 6.282227028711184 18.79020770714303 10000.0 3.284215770357809
470.8191437316772 410.42653163787935 642.3701241146073 1057.3066377178125 1.0 1.0 1.0 1.0 1.0 1.0 1.0 1.0 1.0 0.5844804385631739 -0.2563365996675501 -0.9665875788933345 -0.10356795953850738 -0.9946223794772718 0.5627754494324368 0.8507252954534539 -0.5256105703613975 0.17211926094740848 1.0 1.0 0.197375320224904 6.368858724480064 17.384980719843696 10000.0 3.2453466631206185
470.8191437316772 410.42653163787935 641.4553138483691 1051.0993758779719 1.0 1.0 1.0 1.0 1.0 1.0 1.0 1.0 1.0 0.5803611355034504 -0.2573670383864796 -0.96631372108243 -0.14580250797845468 -0.9893137160007399 0.5562807863164031 0.8710556473502511 -0.49118434341826794 0.1828118885658847 1.0 1.0 0.197375320224904 6.274310908104384 18.48902621113038 10000.0 3.287916754141496
470.8191437316772 410.42653163787935 640.7155327730806 1044.7924902985278 1.0 1.0 1.0 0.9819999999995589 1.0 1.0 1.0 1.0 1.0 0.5761783757351464 -0.25870331607108127 -0.9659568283592317 -0.11649867178394442 -0.9931908474571123 0.5614940238631015 0.8545898171722489 -0.5193036148396255 0.16402218583935402 1.0 1.0 0.197375320224904 6.350124546145068 16.551730673099005 10000.0 3.258356466745445
470.8191437316772 410.42653163787935 639.5963315962448 1038.6899619140079 1.0 1.0 0.9599999999998409 0.9629999999999249 1.0 1.0 1.0 1.0 1.0 0.5720325434112075 -0.2594421708602029 -0.9657586447862351 -0.1803909148228908 -0.9835949968606797 0.5514280521590404 0.8691952750749691 -0.49446898162306285 0.16867032857216802 1.0 1.0 0.197375320224904 6.204310111374445 17.029773875442245 10000.0 3.32297652510454
470.8191437316772 410.42653163787935 638.4052220447494 1032.6015636538814 1.0 1.0 0.8900000000000357 0.9290000000004394 1.0 1.0 1.0 1.0 1.0 0.5678541081219064 -0.26008549716404805 -0.9655855913200704 -0.19199626725444327 -0.981395655869925 0.5513936779981717 0.8634945644965741 -0.5043581436686353 0.16052294680624124 1.0 1.0 0.197375320224904 6.203816191472276 16.192342823911265 10000.0 3.334788507498162
470.8191437316772 410.42653163787935 636.9823964856865 1026.6764922300579 1.0 1.0 0.8229999999999191 0.9259999999999333 1.0 1.0 1.0 1.0 1.0 0.5637127941822004 -0.2603383831580703 -0.9655174396429315 -0.23349839352994015 -0.972357187569947 0.5436703199655625 0.8649795786219147 -0.5018070630900436 0.15211289041434317 1.0 1.0 0.197375320224904 6.093513268134622 15.330266508232917 10000.0 3.377266639488577
470.8191437316772 410.42653163787935 635.291891489394 1020.9011249947376 1.0 0.9940000000001686 0.7720000000001397 0.9609999999997011 1.0 1.0 1.0 1.0 1.0 0.5595943832975903 -0.26014189351881917 -0.9655703989023501 -0.28092226548094645 -0.9597305250730814 0.5383076294479416 0.8712402389334569 -0.4908568488502252 0.14329974040796634 1.0 1.0 0.197375320224904 6.017696722609118 14.429288375448538 10000.0 3.4263475907872047
470.8191437316772 410.42653163787935 633.3430487124285 1015.2032118188437 1.0 0.8369999999998851 0.7350000000001207 1.0 1.0 1.0 1.0 1.0 1.0 0.5554534888314535 -0.25952589645884677 -0.9657361487835235 -0.3236217759399629 -0.9461865281948716 0.5386115302536236 0.8793958252397923 -0.47609135945827097 0.1394551344250763 1.0 1.0 0.197375320224904 6.0219766463642195 14.036986081101196 10000.0 3.4711474088794505
470.8191437316772 410.42653163787935 631.182779582654 1009.5188676408208 1.0 0.7480000000000561 0.7089999999998107 1.0 1.0 1.0 1.0 1.0 1.0 0.5512560870995464 -0.25857431128809216 -0.9659913692895443 -0.3552491355044683 -0.93477165753104 0.5427880860821617 0.887789826748075 -0.4602490885625119 0.1299136814336661 1.0 1.0 0.197375320224904 6.080997570076773 13.065204860348981 10000.0 3.504773227541197
470.8191437316772 410.42653163787935 628.6806339915884 1003.9442850442133 1.0 0.6779999999996239 0.7040000000002772 1.0 1.0 1.0 1.0 1.0 1.0 0.5470437038900773 -0.25703946751011536 -0.9664009065300572 -0.40949121549889217 -0.912314060194865 0.5448571305300953 0.8928353618141761 -0.45038318873393707 0.13256650549555893 1.0 1.0 0.197375320224904 6.110376722043194 13.335136732279693 10000.0 3.5634889602357145
470.8191437316772 410.42653163787935 625.9946066883872 998.334715657977 0.8970000000004241 0.636000000000104 0.7020000000003033 1.0 1.0 1.0 1.0 1.0 1.0 0.542747566493103 -0.25520503929307536 -0.9668869571565333 -0.43187284613032156 -0.9019345013776198 0.552483328921374 0.9001224289399008 -0.4356370196842013 0.12199104944312267 1.0 1.0 0.197375320224904 6.219486423535466 12.260166044406116 10000.0 3.5881608776115326
470.8191437316772 410.42653163787935 622.6657206303883 993.0126299342206 0.684000000000004 0.6140000000002206 0.8290000000002649 1.0 1.0 1.0 1.0 1.0 1.0 0.5385065432128908 -0.25221598018180497 -0.9676709664658393 -0.5302947399448296 -0.8478133572826306 0.5564958713229938 0.8905159704854442 -0.4549519824227251 0.12421637815601283 1.0 1.0 0.197375320224904 6.27742613163635 12.486123289250598 10000.0 3.700540828356135
470.8191437316772 410.42653163787935 619.2234929510353 987.4845629975404 0.6380000000002376 0.6010000000001076 0.9190000000000519 1.0 1.0 1.0 1.0 1.0 1.0 0.5340795037059396 -0.24906937306250043 -0.9684856464616567 -0.5285832109297088 -0.8488814929795789 0.5724891749617665 0.8796360654596738 -0.4756473403085784 0.12984757668053248 1.0 1.0 0.197375320224904 6.512177474003669 13.058480959702223 10000.0 3.6985233430854896
470.8191437316772 410.42653163787935 615.8403770495098 981.7224755597176 0.6089999999996415 0.5869999999996474 1.0 1.0 1.0 1.0 1.0 1.0 1.0 0.5294748435384591 -0.24604259738463485 -0.9692590160902412 -0.5063142237717656 -0.8623490632025957 0.5837847376331722 0.8679038426373312 -0.4967322416909884 0.13191024412522712 1.0 1.0 0.197375320224904 6.681850405708718 13.268342563872402 10000.0 3.672497942680242
470.8191437316772 410.42653163787935 612.5351805694509 975.7933107509836 0.5819999999998265 0.5780000000000244 1.0 1.0 1.0 1.0 1.0 1.0 1.0 0.5247393197731114 -0.24314005135405944 -0.9699911934793766 -0.48690502325427376 -0.8734549206053825 0.5907501052653631 0.8626896788391513 -0.5057336433582426 0.14265993841839486 1.0 1.0 0.197375320224904 6.788174946252045 14.363972914800216 10000.0 3.6501355194469824
470.8191437316772 410.42653163787935 609.4716416666342 969.6220028021187 0.5630000000000422 0.5639999999999081 1.0 1.0 1.0 1.0 1.0 1.0 1.0 0.5198458778162964 -0.24066243769844078 -0.9706088764693244 -0.44464391642513185 -0.8957074229825944 0.5973308550202876 0.8528867042790147 -0.5220960349055339 0.13630915202379623 1.0 1.0 0.197375320224904 6.889870275178905 13.71629065964062 10000.0 3.602369330662062
470.8191437316772 410.42653163787935 606.3314311794476 963.4778885656938 0.5399999999998731 0.5719999999995921 1.0 1.0 1.0 1.0 1.0 1.0 1.0 0.5149269026740668 -0.23798659261116262 -0.9712684395867749 -0.4550978950780753 -0.8904414107034248 0.597986942660149 0.8653178490485337 -0.5012235231092202 0.16157889771101286 1.0 1.0 0.197375320224904 6.900076931025931 16.30074971847381 10000.0 3.614074804573464
470.8191437316772 410.42653163787935 603.7390548423152 956.9253670436103 0.5310000000002735 0.5480000000000179 1.0 1.0 1.0 1.0 1.0 1.0 1.0 0.5097789398443153 -0.2363310354211569 -0.9716726000545471 -0.3678852591254435 -0.9298711932941064 0.607323523632509 0.8541884223816041 -0.5199635939844504 0.14961427266938765 1.0 1.0 0.197375320224904 7.046698047361655 15.074585330686544 10000.0 3.5183264183717107
470.8191437316772 410.42653163787935 601.0565336638429 950.4651468100649 0.5139999999999596 0.5650000000001273 1.0 1.0 1.0 1.0 1.0 1.0 1.0 0.5046465771910635 -0.23444192132222763 -0.9721301278773035 -0.38348989981650744 -0.923545070225988 0.6040518564936715 0.8653877288528133 -0.5011028624453963 0.1688337403208824 1.0 1.0 0.197375320224904 6.995024327253084 17.046594042441548 10000.0 3.5351648073467707
470.8191437316772 410.42653163787935 598.8368255949969 943.7350317150907 0.5059999999997943 0.5509999999999171 1.0 1.0 1.0 1.0 1.0 1.0 1.0 0.499363830994366 -0.23341371059490387 -0.9723775191284085 -0.31322094186891947 -0.9496802838717602 0.6098431939860249 0.8499238206427232 -0.5269055884160616 0.15057883703279895 1.0 1.0 0.197375320224904 7.086716665882664 15.173264925587176 10000.0 3.460175404239988
470.8191437316772 410.42653163787935 596.2855338549131 937.2394700403821 0.502999999999902 0.6109999999997061 1.0 1.0 1.0 1.0 1.0 1.0 1.0 0.4941584674667474 -0.23168123157604756 -0.9727917592863365 -0.3655858272167809 -0.9307776334539963 0.6030101990343858 0.8620509805123812 -0.5068215731375711 0.16770737873226627 1.0 1.0 0.197375320224904 6.978639624809625 16.93067564258295 10000.0 3.5158547743892465
470.8191437316772 410.42653163787935 594.094655121734 930.5470719074988 0.5030000000000853 0.6150000000002079 1.0 1.0 1.0 1.0 1.0 1.0 1.0 0.48883615939561254 -0.23062415842960607 -0.973042906324606 -0.31112106722739025 -0.9503702865343012 0.6070196466400799 0.8452783885486072 -0.5343261605542723 0.1532107306641597 1.0 1.0 0.197375320224904 7.041884860782464 15.442670183876736 10000.0 3.4579650696106787
470.8191437316772 410.42653163787935 591.6710050524924 924.0458562293602 0.5190000000001147 0.7469999999997483 1.0 1.0 1.0 1.0 1.0 1.0 1.0 0.48357939465318855 -0.22903979261202898 -0.9734170603601721 -0.3493151260091107 -0.9370053056099731 0.6004362634813702 0.879905068330751 -0.47514952459815896 0.1749478215861704 1.0 1.0 0.197375320224904 6.938291212669662 17.676619376730347 10000.0 3.4984327396172823
470.8191437316772 410.42653163787935 589.7803122408435 917.3511850941626 0.5229999999997856 0.7259999999997546 1.0 1.0 1.0 1.0 1.0 1.0 1.0 0.4782370374591669 -0.22846566873589563 -0.9735519699579781 -0.271786681102778 -0.9623575219091587 0.6016014569633461 0.8698872737269056 -0.4932505762875212 0.16189860181958915 1.0 1.0 0.197375320224904 6.956532247928481 16.333578922686623 10000.0 3.4168417665343265
470.8191437316772 410.42653163787935 587.7908560153382 910.776756322115 0.5479999999999692 1.0 1.0 1.0 1.0 1.0 1.0 1.0 1.0 0.47293263040738864 -0.22764177601843302 -0.9737449470016127 -0.289634697466838 -0.9571372639403887 0.5959769045436044 0.896617933583175 -0.44280501485082263 0.17775529132299872 1.0 1.0 0.197375320224904 6.868846318846264 17.966378021786245 10000.0 3.4354378076940835
470.8191437316772 410.42653163787935 586.3307943048706 904.1104962772279 0.555000000000251 1.0 1.0 1.0 1.0 1.0 1.0 1.0 1.0 0.4676181656795284 -0.22782574300381955 -0.9737019209310196 -0.2139510133887453 -0.9768443908166382 0.5930956099764165 0.9043394876914113 -0.4268138833285953 0.18819417397651939 1.0 1.0 0.197375320224904 6.824280415137779 19.04643758112244 10000.0 3.3572105045957694
470.8191437316772 410.42653163787935 585.3139716536676 897.3604474946984 0.5640000000001356 1.0 1.0 1.0 1.0 1.0 1.0 1.0 1.0 0.46228517181915585 -0.2288918465205278 -0.9734518594139225 -0.14895868472084522 -0.9888434204899357 0.5932204123271922 0.8976699341696733 -0.44066845733251025 0.18829388045001916 1.0 1.0 0.197375320224904 6.826205891307869 19.05677452655568 10000.0 3.291107778763337
470.8191437316772 410.42653163787935 584.4601285242667 890.6171442379763 0.5839999999996888 1.0 1.0 1.0 1.0 1.0 1.0 1.0 1.0 0.4569538830122184 -0.23029680641391923 -0.9731204349696649 -0.12561789795877598 -0.9920786983462645 0.591333791459183 0.8991748285788952 -0.4375895652893411 0.1951285733320567 1.0 1.0 0.197375320224904 6.797145496584941 19.76632525435576 10000.0 3.2675432918364424
470.8191437316772 410.42653163787935 583.8340063577969 883.8472027966775 0.6049999999997853 1.0 1.0 1.0 1.0 1.0 1.0 1.0 1.0 0.4516118247905929 -0.2321953389920079 -0.9726691752854033 -0.09209258799972976 -0.995750448272815 0.5914435512908409 0.8812751428810841 -0.47260355747700916 0.18474091730913855 1.0 1.0 0.197375320224904 6.798833435668126 18.688671944353114 10000.0 3.2338159144757967
470.8191437316772 410.42653163787935 583.0465541234929 877.155135564972 0.6580000000000769 1.0 1.0 1.0 1.0 1.0 1.0 1.0 1.0 0.4462691211194556 -0.2337915897286681 -0.9722867337221783 -0.11686323495549629 -0.993148017324576 0.5874895154262573 0.8860581522214012 -0.463574105059802 0.1898637613474723 1.0 1.0 0.197375320224904 6.738237518444718 19.21958319492153 10000.0 3.2587235372125463
470.8191437316772 410.42653163787935 582.3374719539421 870.4488776019609 0.7089999999999076 1.0 1.0 1.0 1.0 1.0 1.0 1.0 1.0 0.44089924424560967 -0.2355955550413296 -0.97185118945483 -0.10514826839348172 -0.994456555940908 0.587843250711846 0.879785431790393 -0.4753710066983384 0.18780354880597083 1.0 1.0 0.197375320224904 6.743640959424333 19.005943871127133 10000.0 3.2469356483482312
470.8191437316772 410.42653163787935 581.6257685446749 863.760360559962 0.786999999999759 1.0 1.0 1.0 1.0 1.0 1.0 1.0 1.0 0.43551243751180735 -0.23743628547807222 -0.9714031142313553 -0.10580943500646509 -0.9943864256231641 0.5867056242055593 0.8884236915175824 -0.45902433960550676 0.19472325407407065 1.0 1.0 0.197375320224904 6.726275489739628 19.724192444951253 10000.0 3.24760052395154
470.8191437316772 410.42653163787935 581.1219213292324 857.0397306574694 0.8500000000000162 1.0 1.0 1.0 1.0 1.0 1.0 1.0 1.0 0.4301108333873578 -0.2397716208900569 -0.9708293206407369 -0.07476043434677589 -0.9972015229913568 0.5875715427146632 0.8842082634384507 -0.4670928674976308 0.1930206532443699 1.0 1.0 0.197375320224904 6.739490210897788 19.547282932471497 10000.0 3.2164229045471195
470.8191437316772 410.42653163787935 580.6889575758041 850.3502236615097 0.9800000000005146 1.0 1.0 1.0 1.0 1.0 1.0 1.0 1.0 0.4247193242713301 -0.2423049939662912 -0.9702001287873526 -0.06458768051873408 -0.9979120359657007 0.5852103065787744 0.8951289890056018 -0.4458072375386129 0.19664270922550786 1.0 1.0 0.197375320224904 6.703503670527497 19.923780627761225 10000.0 3.206225323936955
470.8191437316772 410.42653163787935 580.5697537103098 843.7106854330676 1.0 1.0 1.0 1.0 1.0 1.0 1.0 1.0 1.0 0.419403477261604 -0.2455446936012997 -0.9693852709032894 -0.01795074512113531 -0.9998388723937452 0.5810595254697302 0.901740864680016 -0.43227700952761416 0.19868009947050025 1.0 1.0 0.197375320224904 6.640608213747711 20.135803476764085 10000.0 3.1595443628932687
470.8191437316772 410.42653163787935 580.6391162710083 837.127901847797 1.0 1.0 1.0 1.0 1.0 1.0 1.0 1.0 1.0 0.4141474168966979 -0.2492470265532248 -0.9684399412221576 0.010536380171124736 -0.9999444908058095 0.5772408938942494 0.9014655834888585 -0.43285078466498345 0.19330935148432937 1.0 1.0 0.197375320224904 6.583149010567349 19.577271719879906 10000.0 3.1310560784590153
470.8191437316772 410.42653163787935 580.6038235812442 830.6062939851894 1.0 1.0 1.0 1.0 1.0 1.0 1.0 1.0 1.0 0.4088963525017175 -0.2527939206913137 -0.9675201463853421 -0.005411575447042546 -0.9999853573183864 0.573129209121452 0.9140062772626953 -0.40570004328862097 0.19731514195078437 1.0 1.0 0.197375320224904 6.5217033578335535 19.99373831019842 10000.0 3.147004255450316
470.8191437316772 410.42653163787935 580.6788365381092 824.0985242269788 1.0 1.0 1.0 1.0 1.0 1.0 1.0 1.0 1.0 0.4036579811440635 -0.25667475091749 -0.9664978387153509 0.01152591085385558 -0.9999335744833199 0.5722218650883277 0.9155072755335633 -0.40230141491810884 0.1926477729976408 1.0 1.0 0.197375320224904 6.508202068895605 19.50855480038171 10000.0 3.1300664875242954
470.8191437316772 410.42653163787935 580.652039107078 817.6242804559085 1.0 1.0 1.0 1.0 1.0 1.0 1.0 1.0 1.0 0.3984038965394925 -0.26042164987258065 -0.9654949840768946 -0.004139047344330127 -0.9999914341068534 0.5699372650994653 0.9268869441146923 -0.37534063572936943 0.1966889713282136 1.0 1.0 0.197375320224904 6.474299229225723 19.9285929670585 10000.0 3.1457317127523763
470.8191437316772 410.42653163787935 580.733080768439 811.1498339853914 1.0 1.0 1.0 1.0 1.0 1.0 1.0 1.0 1.0 0.3931530013900042 -0.26451883170255186 -0.964380520165519 0.012516176279158667 -0.9999216695978486 0.5699814484992961 0.9262102233185088 -0.37700745645182954 0.18706013421567746 1.0 1.0 0.197375320224904 6.4749536562409356 18.928895650476168 10000.0 3.1290761505013545
470.8191437316772 410.42653163787935 580.5650794192294 804.7242096231599 1.0 1.0 1.0 1.0 1.0 1.0 1.0 1.0 1.0 0.3878660544651211 -0.26814013031423284 -0.9633799201327928 -0.026136597356688353 -0.9996583807874639 0.5667908231095613 0.9376505114513803 -0.34757951374464646 0.1914327520409318 1.0 1.0 0.197375320224904 6.42782022911642 19.38240017193373 10000.0 3.167732227607842
470.8191437316772 410.42653163787935 580.4432119665044 798.2870107897759 1.0 1.0 0.9650000000005176 1.0 1.0 1.0 1.0 1.0 1.0 0.3825597460182133 -0.27198302289590487 -0.962302049907619 -0.018928360365321546 -0.9998208425382422 0.5675052595706567 0.9433924735566106 -0.33167852031257566 0.1867862640178659 1.0 1.0 0.197375320224904 6.438352312242224 18.900517075053475 10000.0 3.160522144421794
470.8191437316772 410.42653163787935 580.1840701639063 791.8801755229388 1.0 0.9729999999995158 0.945999999999997 1.0 1.0 1.0 1.0 1.0 1.0 0.37722632338302176 -0.2756020876286465 -0.9612718082284177 -0.040414662052859866 -0.9991829937960078 0.5657210949056598 0.9520152282959733 -0.30605065772281204 0.1899987473859337 1.0 1.0 0.197375320224904 6.412073971051909 19.233586969287547 10000.0 3.182018325584023
470.8191437316772 410.42653163787935 579.886852728866 785.4895628363926 1.0 0.912 0.9290000000000334 1.0 1.0 1.0 1.0 1.0 1.0 0.37187701733515355 -0.27923149635908845 -0.9602238132024556 -0.04645822306320807 -0.9989202338073893 0.5647307037764719 0.9584370727121343 -0.2853040091744154 0.19282858086151822 1.0 1.0 0.197375320224904 6.397520512912587 19.527333165631813 10000.0 3.188067605217944
470.8191437316772 410.42653163787935 579.5490621031968 779.1327736164682 1.0 0.8610000000001277 0.9189999999995218 1.0 1.0 1.0 1.0 1.0 1.0 0.3665260270795292 -0.2828531933674142 -0.9591632139536296 -0.05306369470767351 -0.9985911296942162 0.5625635276891808 0.9609292513129934 -0.2767941003183591 0.19079364555012024 1.0 1.0 0.197375320224904 6.365757746987962 19.316066741126843 10000.0 3.1946812823041415
470.8191437316772 410.42653163787935 579.07023251184 772.8206670498292 1.0 0.817000000000291 0.9360000000003847 1.0 1.0 1.0 1.0 1.0 1.0 0.36115769771741535 -0.2862145251819752 -0.9581655627159935 -0.07564159025755217 -0.9971350710025741 0.5601311154565727 0.9622375504185983 -0.2722111249828256 0.1885801058746963 1.0 1.0 0.197375320224904 6.3302422612539075 19.086450830298933 10000.0 3.217306562657884
470.8191437316772 410.42653163787935 578.4325261558549 766.5370143335008 1.0 0.7859999999997358 0.9880000000000279 1.0 1.0 1.0 1.0 1.0 1.0 0.35575313671965336 -0.2892714591481855 -0.9572471065102677 -0.10096794030049389 -0.9948896798296161 0.5591480853314672 0.9624093164157917 -0.2716032173522404 0.18698915261464655 1.0 1.0 0.197375320224904 6.31592913638889 18.921540210180975 10000.0 3.2427329390713777
470.8191437316772 410.42653163787935 577.6700505572061 760.2539721352799 0.8919999999995427 0.7670000000003153 1.0 1.0 1.0 1.0 1.0 1.0 1.0 0.3502966350434984 -0.2921164890231887 -0.9563827459970016 -0.12047068559408447 -0.9927168850747383 0.5600553330979818 0.961587602875065 -0.27449823678301916 0.18735169507160054 1.0 1.0 0.197375320224904 6.329138037928919 18.959110652935866 10000.0 3.262356661163885
470.8191437316772 410.42653163787935 576.744826597058 753.948900910157 0.814000000000356 0.75999999999965 1.0 1.0 1.0 1.0 1.0 1.0 1.0 0.34475837055695036 -0.29466135520002457 -0.9556017401363839 -0.14518795113334224 -0.9894040927981359 0.5630306652679523 0.9600566645180594 -0.2798056484677505 0.18934136598778606 1.0 1.0 0.197375320224904 6.37259464663371 19.16539566278311 10000.0 3.2872955874216947
470.8191437316772 410.42653163787935 575.7079556043573 747.625411273441 0.767999999999609 0.7629999999999607 1.0 1.0 1.0 1.0 1.0 1.0 1.0 0.3391534109494212 -0.2970213534145658 -0.9548708371375574 -0.16181048930522815 -0.9868218509694658 0.5654395515012088 0.9587824857079765 -0.28414106549324003 0.19510567971286097 1.0 1.0 0.197375320224904 6.407934350565613 19.763945285367214 10000.0 3.3041176985072864
470.8191437316772 410.42653163787935 574.6818061429263 741.2635608508441 0.7409999999995585 0.7679999999998511 1.0 1.0 1.0 1.0 1.0 1.0 1.0 0.33349657913152164 -0.29952556579047984 -0.9540882744473348 -0.159239177549123 -0.9872400337980014 0.5678932061201315 0.9574959142863997 -0.2884468306722254 0.20026735751885272 1.0 1.0 0.197375320224904 6.444076622503183 20.301106698978135 10000.0 3.3015126025660124
470.8191437316772 410.42653163787935 573.7338420151442 734.8615333652483 0.7220000000001265 0.7750000000004736 1.0 1.0 1.0 1.0 1.0 1.0 1.0 0.32780474971501006 -0.30236416083294143 -0.9531924854108907 -0.14647542242623726 -0.9892143097555025 0.5697705699601655 0.9565257022440724 -0.2916480429327172 0.20853816260797875 1.0 1.0 0.197375320224904 6.471830646261193 21.164255776440513 10000.0 3.2885969713667023
470.8191437316772 410.42653163787935 573.0281780174988 728.3974470065016 0.7109999999999487 0.7710000000003183 1.0 1.0 1.0 1.0 1.0 1.0 1.0 0.32210525012864255 -0.3060202989483782 -0.9520249873987264 -0.10852212228117726 -0.9940940342722057 0.5718375566853575 0.9530115033977354 -0.3029341089933387 0.2090731116636535 1.0 1.0 0.197375320224904 6.502489840892415 21.220189377055164 10000.0 3.250328924503232
470.8191437316772 410.42653163787935 572.3740336123182 721.9327233606518 0.6990000000000016 0.79200000000056 1.0 1.0 1.0 1.0 1.0 1.0 1.0 0.3164007265360538 -0.3099565513897857 -0.9507507224559711 -0.10067268542015734 -0.9949195999729294 0.571517450355305 0.9526527974406827 -0.30406026956582405 0.22287206973546314 1.0 1.0 0.197375320224904 6.497734737586511 22.667627166766486 10000.0 3.2424361720584116
470.8191437316772 410.42653163787935 572.1253538443135 715.4024795270276 0.6929999999997566 0.7739999999999128 1.0 1.0 1.0 1.0 1.0 1.0 1.0 0.3107375666451824 -0.3152405594871134 -0.9490117963725486 -0.03805365541017016 -0.999275697347796 0.5740198955401385 0.944306231067541 -0.3290679898850935 0.2107781267618578 1.0 1.0 0.197375320224904 6.534977134895149 21.398551119890048 10000.0 3.179655499117102
470.8191437316772 410.42653163787935 571.7007031516285 708.924823297874 0.6869999999998272 0.8409999999998206 1.0 1.0 1.0 1.0 1.0 1.0 1.0 0.30505567372382303 -0.3201729069209925 -0.9473591239196261 -0.0654158101297892 -0.9978580920076078 0.5711015540481209 0.9443709745441455 -0.328882140650022 0.22085396965935633 1.0 1.0 0.197375320224904 6.491560554588596 22.455369048495204 10000.0 3.2070552086535558
470.8191437316772 410.42653163787935 571.3740242453106 702.4136390488625 0.6879999999997161 0.891000000000461 1.0 1.0 1.0 1.0 1.0 1.0 1.0 0.29936022338753876 -0.3256134792892649 -0.9455029677928777 -0.05010893658231078 -0.9987437581655216 0.5729727772418738 0.9411982216565911 -0.33785486166469547 0.2299324708522119 1.0 1.0 0.197375320224904 6.519374159565351 23.41181669594564 10000.0 3.1917225837024685
470.8191437316772 410.42653163787935 571.331376068065 695.8527675675773 0.6890000000003647 0.9050000000002446 1.0 1.0 1.0 1.0 1.0 1.0 1.0 0.29369632997170103 -0.33215462778953625 -0.9432249483755158 -0.006500245637633975 -0.999978873180154 0.5757628000688081 0.9367402833150069 -0.3500252013997286 0.23722440446495963 1.0 1.0 0.197375320224904 6.561010094563414 24.18309431158945 10000.0 3.1480929450043202
470.8191437316772 410.42653163787935 571.5634080049433 689.2775855906967 0.6909999999999796 0.9260000000003501 1.0 1.0 1.0 1.0 1.0 1.0 1.0 0.2880987488877542 -0.33978782755292675 -0.9405021170879215 0.03526709919444859 -0.9993779223669137 0.576982506264583 0.9294524185772536 -0.36894200303149793 0.2408878863503474 1.0 1.0 0.197375320224904 6.579274796573449 24.571648047015774 10000.0 3.106318239617304
470.8191437316772 410.42653163787935 571.9816180665141 682.7101229705867 0.6960000000002442 0.9930000000004976 1.0 1.0 1.0 1.0 1.0 1.0 1.0 0.2825663603182562 -0.34827295889789717 -0.937393165166305 0.06355037390954323 -0.9979786320237308 0.5770818923518813 0.9257206199010163 -0.37820805635268817 0.24743390780122954 1.0 1.0 0.197375320224904 6.580764767270025 25.267751178653942 10000.0 3.0779994254650256
470.8191437316772 410.42653163787935 572.6321500003233 676.1424634854936 0.7020000000001212 1.0 1.0 1.0 1.0 1.0 1.0 1.0 1.0 0.2771144329236208 -0.35779883839641186 -0.9337986888201216 0.09856845082203793 -0.9951302731313842 0.5783500166026161 0.9170319926956025 -0.39881364617165804 0.24668899385568355 1.0 1.0 0.197375320224904 6.599798702160382 25.188417289625807 10000.0 3.042863889974656
470.8191437316772 410.42653163787935 573.3775422718295 669.5966810682605 0.7140000000003184 1.0 1.0 1.0 1.0 1.0 1.0 1.0 1.0 0.27172423982993643 -0.36795606099571654 -0.9298431788084034 0.11314246230937895 -0.993578775549564 0.5775699947951587 0.9149719776186174 -0.40351738521738606 0.24919527852008372 1.0 1.0 0.197375320224904 6.588085996112899 25.455462625380243 10000.0 3.028207396501444
470.8191437316772 410.42653163787935 574.1673508822028 663.0801292009565 0.7340000000002491 1.0 1.0 1.0 1.0 1.0 1.0 1.0 1.0 0.2663897809256064 -0.37860120411620296 -0.9255598998669731 0.12031988754173127 -0.9927351734787808 0.5759786736213535 0.9132447220890464 -0.40741143525495266 0.2493281468843742 1.0 1.0 0.197375320224904 6.564239931651111 25.469629680845724 10000.0 3.0209805490056665
470.8191437316772 410.42653163787935 574.9439542657226 656.5941201991587 0.7640000000002416 1.0 1.0 1.0 1.0 1.0 1.0 1.0 1.0 0.26109530155417504 -0.3895669539937946 -0.920998147856985 0.11888599646389243 -0.9929079110596246 0.5738428417411575 0.9118868051108758 -0.41044177987222435 0.24793692069211315 1.0 1.0 0.197375320224904 6.5323369161959945 25.3213400422226 10000.0 3.022424807381968
470.8191437316772 410.42653163787935 575.6525503442465 650.1357765358343 0.8110000000000273 1.0 1.0 1.0 1.0 1.0 1.0 1.0 1.0 0.25582004434475536 -0.4006924683879798 -0.9162126094838183 0.10906343668221609 -0.9940347915335077 0.5714747224727448 0.9112195458184931 -0.4119210352947992 0.24507687134628053 1.0 1.0 0.197375320224904 6.497100220567817 25.01683116666305 10000.0 3.0323118360849706
470.8191437316772 410.42653163787935 576.2361902979023 643.7002253478295 0.8859999999995822 1.0 1.0 1.0 1.0 1.0 1.0 1.0 1.0 0.2505382711141939 -0.41180616938559417 -0.9112714627683473 0.09031930876102809 -0.9959128588711615 0.5691037142497343 0.9082795375765467 -0.4183638149024538 0.23664401127310697 1.0 1.0 0.197375320224904 6.461962139237172 24.12160300228423 10000.0 3.05115009405403
470.8191437316772 410.42653163787935 576.5758733788414 637.2889127020629 1.0 1.0 1.0 1.0 1.0 1.0 1.0 1.0 1.0 0.2452024031029656 -0.4225167391491188 -0.9063551208763568 0.05290762488471918 -0.9985994107894606 0.5662805012214602 0.9017134213691774 -0.4323342523125971 0.21843791430166415 1.0 1.0 0.197375320224904 6.420304855475519 22.201516411308337 10000.0 3.0886603142424063
470.8191437316772 410.42653163787935 576.4469185123584 630.9364495417352 1.0 1.0 1.0 1.0 1.0 0.9330000000002856 1.0 1.0 1.0 0.23974474448810024 -0.43200965498574584 -0.9018689805060915 -0.0202957972346563 -0.9997940190932378 0.5617437170532492 0.9033095458238186 -0.42898935234288343 0.21236729324098946 1.0 1.0 0.197375320224904 6.353771916028287 21.564914746320483 10000.0 3.1618898444548473
470.8191437316772 410.42653163787935 575.9352001598413 624.6877916681326 1.0 1.0 1.0 1.0 1.0 0.865999999999946 1.0 1.0 1.0 0.23422704567399233 -0.44044782111662456 -0.8977782114050318 -0.0816192941369961 -0.9966635795616184 0.5559537175013176 0.909689185195837 -0.41528976189852584 0.21097146578682646 1.0 1.0 0.197375320224904 6.269575814490029 21.418784776332412 10000.0 3.223302841135522
470.8191437316772 410.42653163787935 575.2621565250623 618.5580799795695 1.0 1.0 1.0 1.0 1.0 0.8089999999997103 0.9369999999997427 1.0 1.0 0.22874720222335765 -0.4485091051853013 -0.8937782625270545 -0.10914425553433685 -0.9940259209315697 0.5487948336858764 0.9180331488152731 -0.3965036414414308 0.21283546136273213 1.0 1.0 0.197375320224904 6.1665511527290855 21.61394782251832 10000.0 3.250954775303858
470.8191437316772 410.42653163787935 574.6215214461288 612.4865379446163 1.0 1.0 1.0 1.0 1.0 0.757000000000252 0.8459999999996387 1.0 1.0 0.2233348873084644 -0.4569504084833905 -0.8894921720773391 -0.10493189242368658 -0.9944794105221002 0.5444963147259957 0.9253177479181188 -0.3791926494379087 0.2143714084777013 1.0 1.0 0.197375320224904 6.105246595065879 21.774885586930615 10000.0 3.2467180687251664
470.8191437316772 410.42653163787935 574.2627792541518 606.3810128600205 1.0 1.0 1.0 1.0 1.0 0.717999999999663 0.7439999999997853 1.0 1.0 0.2180257272275805 -0.46684056090088577 -0.88434150117347 -0.05865581227874072 -0.9982782656583891 0.5452562857373288 0.9309000948154689 -0.36527388829828933 0.21292083295581277 1.0 1.0 0.197375320224904 6.116055307053168 21.62289022565978 10000.0 3.2002821523114298
470.8191437316772 410.42653163787935 574.2182106619165 600.2387447025533 1.0 1.0 1.0 1.0 1.0 0.6890000000003118 0.6649999999999666 1.0 1.0 0.21284378562186812 -0.4783711737566453 -0.8781577421617881 -0.007255856935220099 -0.9999736759235893 0.547106947601844 0.9349988232442805 -0.3546508149318292 0.20893147457776107 1.0 1.0 0.197375320224904 6.142429851259952 21.20537870946934 10000.0 3.1488485741935945
470.8191437316772 410.42653163787935 574.387410505446 594.093007182302 1.0 1.0 0.9869999999993868 1.0 1.0 0.6640000000000046 0.6049999999996242 0.8370000000001703 1.0 0.2077845698265628 -0.4911828003038698 -0.8710565175036857 0.027520823207487954 -0.9996212304117906 0.5475017515640823 0.9383599294573651 -0.345659721096874 0.20417787436198376 1.0 1.0 0.197375320224904 6.1480662207620345 20.708832525911458 10000.0 3.1140683551721535
470.8191437316772 410.42653163787935 574.7395386178166 587.7953175824666 1.0 1.0 0.9469999999998504 1.0 1.0 0.642999999999877 0.5539999999999126 0.678000000000337 1.0 0.20272265196035288 -0.5055224978318775 -0.8628134237399296 0.05582665747335889 -0.9984404761002792 0.558570244748083 0.9464060803278271 -0.32297914966529717 0.204865195220709 1.0 1.0 0.197375320224904 6.30752633790745 20.780565122038798 10000.0 3.085736956998557
470.8191437316772 410.42653163787935 575.321731860983 581.271071261334 1.0 0.9880000000003784 0.9049999999996587 1.0 1.0 0.6360000000002435 0.5099999999998077 0.5730000000001838 1.0 0.19763616686885177 -0.5218047604797226 -0.8530649400489386 0.08888214530832564 -0.9960421498337255 0.5750377518272646 0.958585548017149 -0.2848047526511138 0.20633406330586146 1.0 1.0 0.197375320224904 6.5501709161823705 20.933935097043918 10000.0 3.052593061587991
470.8191437316772 410.42653163787935 576.2333379620643 574.5241719025466 1.0 0.9440000000005314 0.8580000000000111 1.0 1.0 0.6680000000003641 0.47600000000000614 0.4940000000000846 1.0 0.1926028937920472 -0.5404776838408109 -0.841358350092321 0.13389812607551974 -0.9909951018211262 0.5920526492311928 0.9707859020011933 -0.23994735355016833 0.20162443401137575 1.0 1.0 0.197375320224904 6.8082065656921555 20.44252472796166 10000.0 3.0072911612334323
470.8191437316772 410.42653163787935 577.1939216382574 567.5751975602253 1.0 0.8679999999999671 0.8230000000003614 1.0 1.0 0.6819999999999742 0.4420000000001941 0.439999999999794 0.65199999999973 0.1875208555089387 -0.5605563636490268 -0.8281162739450179 0.1369317818788447 -0.9905804798760596 0.6053223670682509 0.986125073113733 -0.16600403662692864 0.20698238190328766 1.0 1.0 0.197375320224904 7.015052773087872 21.0016592991354 10000.0 3.004229301306105
470.8191437316772 410.42653163787935 578.5910621562244 560.2764178809495 1.0 0.8200000000000646 0.7720000000000433 1.0 1.0 1.0 0.4280000000000241 0.3929999999999656 0.48200000000005566 0.1825119743021535 -0.5838764814311451 -0.8118425059280807 0.18800760817777534 -0.9821675718874413 0.6310323760038034 0.9974089299562459 -0.0719404367761036 0.1965329746572173 1.0 1.0 0.197375320224904 7.4312977624070085 19.91236603361467 10000.0 2.952459468541914
470.8191437316772 410.42653163787935 579.2764657578616 552.5005742679432 1.0 0.7259999999997433 0.7930000000000429 1.0 1.0 0.698999999999902 0.37600000000004863 0.3539999999998698 0.44300000000003953 0.17686065249457616 -0.6067878468607205 -0.7948638304150786 0.08780479667499001 -0.9961377001604064 0.6530505366528118 0.9985895653149065 0.05309312614817562 0.20922484176341305 1.0 1.0 0.197375320224904 7.80599269734911 21.236056465802413 10000.0 3.0536746391657528
470.8191437316772 410.42653163787935 581.1928206117442 544.5051289286033 1.0 0.6999999999997272 0.6969999999996253 1.0 1.0 1.0 0.4179999999997932 0.33000000000005514 0.34499999999998077 0.1719396060569769 -0.6355562976429602 -0.7720545269126871 0.23307945274548472 -0.9724576950736034 0.6762598321808511 0.9783994211749019 0.20672342064850097 0.20151372588927052 1.0 1.0 0.197375320224904 8.221895286390529 20.430985057856347 10000.0 2.9063494961279104
470.8191437316772 410.42653163787935 582.680410369154 536.2374025309832 0.8870000000000521 0.6329999999999868 0.7000000000000857 1.0 1.0 1.0 0.3999999999999978 0.3090000000001498 0.31600000000001854 0.16677621552130617 -0.6644613275319141 -0.7473226506767519 0.17708370036029278 -0.9841957950868852 0.6858349860870063 0.9399717488464768 0.34125226939977404 0.2139280461244657 1.0 1.0 0.197375320224904 8.400489454326735 21.728418358701198 10000.0 2.963570126545417
470.8191437316772 410.42653163787935 584.350604225307 527.7988456544887 0.7450000000000364 0.5910000000001073 0.6799999999998798 1.0 1.0 1.0 0.4529999999999199 0.30500000000008815 0.29200000000001425 0.16186006101264283 -0.6952485890610917 -0.7187693645450961 0.19415767982535057 -0.9809703335803976 0.6963738335192976 0.8694572638882241 0.4940081641754548 0.22033220080820737 1.0 1.0 0.197375320224904 8.60225491804128 22.40052329574569 10000.0 2.9461939367002206
470.8191437316772 410.42653163787935 586.07853702076 519.2862826327064 0.6460000000000039 0.5559999999997622 0.6819999999997275 1.0 1.0 1.0 1.0 0.3150000000000632 0.2830000000000017 0.15722566571164331 -0.7270016369023252 -0.6866357257974126 0.19892928388690287 -0.9800138468471984 0.7006705821341384 0.8036014457614193 0.5951678052198024 0.24281318335409163 1.0 1.0 0.197375320224904 8.68616606711024 24.776138836311468 10000.0 2.9413274062182637
470.8191437316772 410.42653163787935 586.2969094504141 511.1536046102935 0.5509999999997265 0.5839999999997899 1.0 1.0 1.0 1.0 0.4339999999999247 0.2880000000000858 0.2729999999998663 0.15204708477236029 -0.7535976673750893 -0.6573359534719095 0.02684155816432457 -0.9996397004697799 0.6715499605794832 0.7319260948068567 0.6813840266257966 0.2605176764904775 1.0 1.0 0.197375320224904 8.135609278614021 26.666369568025544 10000.0 3.1147478712938703
470.8191437316772 410.42653163787935 588.7770212746473 502.86462060039867 0.56800000000006 0.5160000000002807 0.6659999999998117 1.0 1.0 1.0 1.0 0.4420000000000575 0.3040000000000321 0.14875087980194457 -0.7871057486821608 -0.6168180772249587 0.2866497333887193 -0.9580354535966694 0.6989304259557283 0.6648135558950614 0.7470093278521789 0.2774101759695915 1.0 1.0 0.197375320224904 8.652063948965786 28.48741355383651 10000.0 2.8508646717736936
470.8191437316772 410.42653163787935 586.5731506717959 495.3551894228937 0.5989999999998535 1.0 1.0 1.0 1.0 1.0 0.34800000000018527 0.27300000000002084 0.277999999999932 0.14258999731636246 -0.8062641829693399 -0.5915556332761804 -0.2816034692764458 -0.9595308677116489 0.6542050081030675 0.6465259994079962 0.7628919530900111 0.30231551863427075 1.0 1.0 0.197375320224904 7.826148621371528 31.206607954665387 10000.0 3.4270574511214513
470.8191437316772 410.42653163787935 589.288287949617 487.29943654949795 0.5370000000001343 0.531000000000174 1.0 1.0 1.0 1.0 1.0 1.0 0.36400000000009103 0.14029312994136034 -0.8388705795547247 -0.5443309202658988 0.3193900661434196 -0.9476233353231135 0.6911220888541889 0.5794624127257709 0.8149989645625497 0.30867587493859583 1.0 1.0 0.197375320224904 8.501007281177808 31.908117103555817 10000.0 2.8165068820509855
470.8191437316772 410.42653163787935 586.4457565062227 480.27132017539986 1.0 1.0 1.0 1.0 1.0 1.0 0.4180000000001759 0.2989999999998681 0.2930000000000225 0.13426873634768066 -0.8559579919241573 -0.5170453713758243 -0.3749454055870598 -0.9270468935437707 0.6399675333617991 0.6313067213556447 0.7755332511060931 0.33038517267671974 1.0 1.0 0.197375320224904 7.581187557009195 34.326056016086994 10000.0 3.525930536713762
470.8191437316772 410.42653163787935 588.8818781016579 472.40919711205146 0.5469999999998022 0.6150000000002275 1.0 1.0 1.0 1.0 1.0 1.0 0.4799999999998264 0.1325594066289557 -0.8853987364002227 -0.46483231124878677 0.2959727910922864 -0.955196370875142 0.6767480400286919 0.587878769527375 0.8089490418678914 0.3291365279148555 1.0 1.0 0.197375320224904 8.230897125525292 34.185956814880946 10000.0 2.841118875376441
470.8191437316772 410.42653163787935 585.6948794792856 465.82714461131786 1.0 1.0 1.0 1.0 1.0 1.0 1.0 0.35100000000018716 0.32399999999983903 0.12684988557418886 -0.9007254345579373 -0.4343888713358286 -0.4357974176145579 -0.9000447826638864 0.6238617288077256 0.6393603701666973 0.7689072226610333 0.3393719312557377 1.0 1.0 0.197375320224904 7.313027782076028 35.33825366107788 10000.0 3.592516716009686
470.8191437316772 410.42653163787935 586.7288827896554 458.4521558096842 0.6359999999998541 1.0 1.0 1.0 1.0 1.0 1.0 1.0 0.5239999999998798 0.12481102773859365 -0.9238394049360354 -0.38278029453908924 0.13884603235778317 -0.9903139801590712 0.6319837111440708 0.632613059069998 0.7744680222540498 0.33608906488310475 1.0 1.0 0.197375320224904 7.447121770864075 34.967700529331815 10000.0 3.0022965886637225
470.8191437316772 410.42653163787935 583.4370167030548 452.5709810472933 1.0 1.0 1.0 1.0 1.0 1.0 1.0 0.4149999999998119 0.36000000000013815 0.1196691245527306 -0.9365675229245655 -0.35048719663197897 -0.48842356486810934 -0.8726066818914051 0.5875903440326421 0.6820561105298903 0.7312998441739462 0.3366444997000835 1.0 1.0 0.197375320224904 6.7397773641192975 35.03033008499159 10000.0 3.6518749096595666
470.8191437316772 410.42653163787935 583.71084968891 445.5789735900935 0.850000000000081 1.0 1.0 1.0 1.0 1.0 1.0 1.0 0.650000000000062 0.11769009433741018 -0.9547833901212723 -0.2973023342466896 0.039133714709506634 -0.9992339827953386 0.6042006592168846 0.6301305486866537 0.7764892089474629 0.32114876517275914 1.0 1.0 0.197375320224904 6.997367561138987 33.29274523559983 10000.0 3.1024489434513014
470.8191437316772 410.42653163787935 579.797990706632 440.4757350787406 1.0 1.0 1.0 1.0 1.0 1.0 1.0 0.45200000000021395 0.3959999999999701 0.1125666580734348 -0.9640241930855454 -0.26581451266957395 -0.6084683800355126 -0.7935781187110434 0.5669841777053966 0.6166936940678738 0.7872032061017789 0.317970828923406 1.0 1.0 0.197375320224904 6.430669383427194 32.93880761070792 10000.0 3.7957217952654543
470.8191437316772 410.42653163787935 578.8405626733858 433.87461893919794 1.0 1.0 1.0 1.0 1.0 0.9540000000001067 1.0 1.0 0.6169999999998285 0.11008904415770049 -0.9772417257612706 -0.2121287567283927 -0.14353839644493746 -0.9896447487588745 0.5830154079453941 0.6070134168855277 0.7946915827671491 0.3097258709833015 1.0 1.0 0.197375320224904 6.67018760804948 32.02421641914988 10000.0 3.285628570143733
470.8191437316772 410.42653163787935 574.5260917953588 429.1434978369126 1.0 1.0 1.0 0.9290000000000792 0.9490000000001361 1.0 1.0 0.5070000000002164 0.4289999999998813 0.10499404544348745 -0.9841009654979013 -0.17760993695764482 -0.6738222196577542 -0.738893508088613 0.5651024923528151 0.7644589672560707 0.6446723876371485 0.4774183786239472 0.5921463409269359 0.8058304480018369 0.3085548340459501 6.402981012140569 51.9635160030662 31.894738820619633 3.8809622164540007
470.8191437316772 410.42653163787935 568.7915399230712 428.1033547905364 1.0 0.9519999999998809 0.8680000000003912 1.0 1.0 0.6020000000002474 0.4090000000000519 0.40800000000000464 0.5879999999998679 0.09922671167417252 -0.9841100492740712 -0.17755959821362838 -0.983945401332803 -0.17846973747957742 0.5247062450653398 -1.0 -1.8369701987210297e-16 0.197375320224904 0.7508644322768077 0.6604563606640693 0.29236221120502925 5.8281199998696565 10000.0 30.114731462310946 4.532957980317472
470.8191437316772 410.42653163787935 564.9061496492122 424.9371547296901 1.0 1.0 1.0 0.8089999999999822 1.0 1.0 1.0 0.4429999999999902 0.393000000000018 0.09491282866926332 -0.9883152724330773 -0.15242349646800643 -0.7752030841760862 -0.6317121007895002 0.4630677094922184 0.8630384152614946 0.5051382917409133 0.4669469131556694 0.7401708876989697 0.6724188107146611 0.2797323040871831 5.012093415480286 50.61587854238322 28.739162741046343 4.028629167375228
470.8191437316772 410.42653163787935 560.1576456571752 425.1038318923728 1.0 0.7889999999997624 0.9690000000002318 1.0 1.0 0.4420000000001998 0.36299999999984367 0.3940000000000559 1.0 0.090289571075866 -0.9867718075872857 -0.1621153902346128 -0.9993845291340883 0.03507938037418473 0.44234525050125506 -1.0 -1.8369701987210297e-16 0.197375320224904 0.8817426076530858 0.47173082774940256 0.26152007321453885 4.751428357762715 10000.0 26.773937979720625 4.747475559309977
470.8191437316772 410.42653163787935 556.8342399378494 422.9975121560566 1.0 1.0 0.7970000000000189 0.7850000000000291 1.0 1.0 1.0 0.39000000000019575 0.3590000000000155 0.08671055471188183 -0.9894883970267151 -0.14461228215301014 -0.8446471554901023 -0.5353234374866086 0.3743450300146588 0.882180171433471 0.470912035447823 0.23899742658363365 1.0 1.0 0.197375320224904 3.934667509058783 24.37105325677846 10000.0 4.147498353542533
470.8191437316772 410.42653163787935 552.9661197483354 420.60030184933663 1.0 1.0 0.7459999999999783 0.7550000000002584 1.0 1.0 1.0 0.3970000000000135 0.3550000000000162 0.08258605076588266 -0.9924179013491952 -0.12290935310894385 -0.8500034714399972 -0.5267770861948666 0.426058524822106 0.876861934121859 0.4807422890573209 0.22700558752906885 1.0 1.0 0.197375320224904 4.550711049404292 23.103008916072508 10000.0 4.157584537329715
470.8191437316772 410.42653163787935 548.2996413613298 418.8101795555242 1.0 0.8059999999998007 0.6840000000001792 0.8870000000000823 1.0 1.0 0.5209999999998098 0.3590000000000903 0.35300000000001414 0.07777535424064919 -0.9941969267867021 -0.10757541897606915 -0.9336587851089339 -0.3581637516400978 0.461964215469087 0.9653462302938056 0.2609725189699842 0.4410246616441713 0.9021174203766098 0.4314906254521076 0.2174258049797062 4.998055458195161 47.35021776797483 22.09525883973517 4.346088553850069
470.8191437316772 410.42653163787935 544.917141631662 415.4155873836322 1.0 1.0 0.7579999999999483 0.6389999999999683 0.7980000000000169 1.0 1.0 1.0 0.38599999999991774 0.07412953111573617 -0.9977409793155392 -0.06717840571544356 -0.7058439588873084 -0.7083673522278476 0.44561352916263686 0.8635991713135901 0.504179007205259 0.20796801330255832 1.0 1.0 0.197375320224904 4.792135268820421 21.10465604234413 10000.0 3.925206507497743
470.8191437316772 410.42653163787935 539.8654272808297 415.38259582955715 0.7100000000001806 0.6229999999998929 0.8149999999999311 1.0 1.0 1.0 0.37200000000011907 0.3360000000000379 0.39600000000010077 0.06911356433506755 -0.9974338088434971 -0.07159467142151098 -0.9999786752431137 -0.006530624704216468 0.4661829199384064 -1.0 -1.8369701987210297e-16 0.197375320224904 0.914224873315573 0.40520720750145156 0.19611115203926488 5.0518220797099564 10000.0 19.868492793163263 4.705858309258749
470.8191437316772 410.42653163787935 535.7446540720898 413.62408358802196 1.0 0.6599999999999127 0.5949999999999893 0.8000000000000189 1.0 1.0 1.0 0.38600000000014395 0.33500000000006475 0.06491279671591554 -0.9987894428039759 -0.04918992725470812 -0.9197527339455159 -0.3924982909513734 0.4202787686259838 0.9914398258837237 0.1305644348651335 0.4182334416004567 0.9147287803444485 0.40406838333326417 0.18842320586950367 4.480305474127591 44.55490280216062 19.07018277912443 4.309042693118414
470.8191437316772 410.42653163787935 531.662785595856 415.258049799861 0.6030000000000751 0.8879999999998387 1.0 1.0 1.0 0.35899999999993476 0.3059999999999729 0.33599999999990793 1.0 0.06095949431629988 -0.9968619574203811 -0.07915957205547768 -0.9283810708222517 0.3716296373258317 0.4133758180873142 -1.0 -1.8369701987210297e-16 0.197375320224904 0.9698191032013969 0.24382556688263515 0.16871902007824935 4.396759697629954 10000.0 17.034785650613788 5.093152739592051
470.8191437316772 410.42653163787935 528.2454519272688 414.2412741682889 0.9499999999999937 0.5890000000000174 0.6169999999999092 1.0 1.0 1.0 1.0 0.3379999999999217 0.30399999999999794 0.05748941182241962 -0.9978009036968358 -0.06628240024152511 -0.9584741569959535 -0.2851794003270507 0.3421618098263378 0.9891344575896289 0.14701368918869617 0.15938092435254614 1.0 1.0 0.197375320224904 3.565389472051855 16.075142026399266 10000.0 4.423195384584783
470.8191437316772 410.42653163787935 523.8755920451396 413.5753893318903 0.6470000000001538 0.5620000000000978 0.6979999999999574 1.0 1.0 1.0 0.47599999999997095 0.3149999999999856 0.3000000000000713 0.05309981608750847 -0.9982434752378069 -0.05924495037677081 -0.988588327544172 -0.15064235341834278 0.4153259342041756 0.9954145702255338 0.0956547614220845 0.15855365591535597 1.0 1.0 0.197375320224904 4.420302931337229 15.990270421003292 10000.0 4.561170971364651
470.8191437316772 410.42653163787935 519.2164094642901 411.19716065588943 1.0 0.5630000000000354 0.5389999999998931 0.8009999999999831 1.0 1.0 1.0 0.48500000000003035 0.32599999999998824 0.048365634825437986 -0.9998732533486057 -0.015920968503048468 -0.8906771363069506 -0.4546363809244151 0.48009341637711417 0.9979255893221667 0.06437793236821311 0.1709964758160485 1.0 1.0 0.197375320224904 5.231056676909907 17.26929738947799 10000.0 4.240425058964241
470.8191437316772 410.42653163787935 513.4450712864611 411.63219948349536 0.5259999999999557 0.5960000000000829 1.0 1.0 1.0 1.0 0.3910000000000087 0.3010000000000474 0.30599999999997424 0.04261714633773095 -0.9996002235704228 -0.028273539537186785 -0.9971710384349868 0.07516595044626377 0.5217716943753977 0.9900485279062793 -0.1407263741826999 0.3971147919932354 0.9997745503675172 0.021233191880378664 0.185074118700302 5.787711390903187 42.02188578922522 18.723171656245626 4.7876258916639065
470.8191437316772 410.42653163787935 509.3952625669133 408.30037062209396 1.0 0.5669999999998118 0.488000000000082 0.5780000000001259 1.0 1.0 1.0 1.0 0.4519999999999518 0.038615456092722766 -0.998484565558024 0.05503246625769304 -0.7722396600578385 -0.6353313367320662 0.48110710555868547 0.9976272072383705 0.06884733384648466 0.19064558393677689 1.0 1.0 0.197375320224904 5.244238193159532 19.30070169189826 10000.0 4.023951476576344
470.8191437316772 410.42653163787935 504.06328628717364 408.8184148390344 0.4910000000000803 0.6140000000001136 1.0 1.0 1.0 1.0 0.4859999999999882 0.3289999999999904 0.31800000000005196 0.033270730084906885 -0.9988320787551493 0.048316440780205645 -0.9953133149478737 0.09670266329049433 0.48973245960981915 0.9861469996199838 -0.1658737325211671 0.3983566525461002 0.999508557855574 0.031347133417117895 0.20057248432948516 5.357083241691482 42.169409143708414 20.33289631002593 4.809242999097486
470.8191437316772 410.42653163787935 500.0555073646828 405.82504242964023 1.0 0.48599999999997884 0.46700000000002084 0.6499999999999772 1.0 1.0 1.0 1.0 0.5479999999999913 0.029587622460024887 -0.987839771241451 0.15547535609747903 -0.801194202654023 -0.5984044197978358 0.4622946021079758 0.9981224566402244 0.061249992248843366 0.20480313020497776 1.0 1.0 0.197375320224904 5.0022565181010386 20.774086809690374 10000.0 4.070880858664907
470.8191437316772 410.42653163787935 494.89655750480256 406.5724006136046 0.48299999999987525 0.77399999999978 1.0 1.0 1.0 1.0 0.7139999999999784 0.3629999999999288 0.3379999999999127 0.0243791012709893 -0.9874294662444828 0.15806027075813742 -0.9896691940630373 0.14336975386258488 0.47868749337586675 0.9817034967895849 -0.19041597724745 0.3975960755181216 0.9989237280701047 0.046383030286126344 0.21298622503812425 5.212802308921463 42.07903797961028 21.62974006883994 4.8562544918520025
470.8191437316772 410.42653163787935 490.12556674795707 405.03374098472085 0.47599999999997594 0.4680000000000868 0.6929999999999152 1.0 1.0 1.0 1.0 1.0 0.41399999999997905 0.020042767912362702 -0.9631323184957635 0.26902813434467227 -0.9517301600629791 -0.3069359907643549 0.46313623960997746 0.9953253879525471 0.09657832105142282 0.2203754104730684 1.0 1.0 0.197375320224904 5.012965814312094 22.40506477751142 10000.0 4.400417036186571
