83 49 83 -19 -2 15 49 -36 49 -19 -2 15 -19 66 32 49 49 66 49 -53 15 66 83 -36 -36 -53
83 -36 66 -2 15 -2 -19 32 -2 -36 -19 32 49 -36 66 66 49 49 15 -36 -2 -19 66 83 49 66
49 32 32 -53 -2 66 -2 -53 -19 -36 32 -19 -19 49 -19 83 32 -19 49 -19 66 -36 49 83 -36 -19
32 -53 49 15 -36 66 -2 49 49 -2 49 32 -19 -19 66 32 -19 -2 -2 15 32 -36 -53 83 -36 49
83 -19 -19 49 -36 15 32 -53 -2 -19 32 66 49 83 49 -2 -53 49 49 83 -53 49 32 66 -19 83
32 -53 -53 83 -2 66 -53 49 -53 49 15 -19 15 83 -2 66 -2 83 49 49 15 15 66 15 -36 49
66 32 15 15 -2 -19 -53 -36 66 -2 83 -19 32 -36 49 32 -2 -2 83 66 -36 -2 83 -2 32 15
66 32 83 83 49 -36 -36 -53 -2 32 -2 -36 -36 32 -2 32 83 83 83 15 32 -2 15 -2 32 -19
49 83 -53 66 32 -2 -36 32 -36 -2 15 -36 15 15 83 -53 66 -2 -19 -19 15 -36 66 32 -19 66
32 15 -2 66 -19 15 32 -36 49 -19 32 66 15 49 -19 66 -19 66 83 -19 32 -36 -2 -53 49 83
-19 32 66 15 66 66 32 32 -36 -36 -19 83 -36 32 83 -36 -19 -36 15 -53 66 -36 -53 49 66 66
-19 15 -36 83 -2 -53 -2 83 -36 83 66 -2 -53 15 -2 83 -2 32 66 -36 32 -19 49 32 -36 -53
-2 -36 -36 83 49 -53 66 66 15 -19 49 -36 49 32 15 -53 49 66 15 49 -2 15 15 32 -53 -53
49 -2 -36 -2 -19 -36 32 15 -19 15 -53 -36 -2 15 -53 -2 -36 83 15 83 15 -36 -2 -53 32 83
-36 49 49 66 -53 -19 66 66 -36 32 83 49 49 49 -19 15 32 83 -36 -36 32 15 -19 -19 32 49
-19 -53 -19 49 -19 15 -53 15 -53 83 49 49 83 -19 -2 -36 -53 83 49 66 -53 83 32 -2 -2 -53
32 66 49 83 -19 -53 83 -19 66 -53 83 -19 -2 -19 83 -19 83 66 66 66 -19 32 -19 -53 -53 15
-53 49 15 83 49 -36 83 49 -19 -53 -2 -36 66 -19 83 -36 15 -53 -53 83 -2 49 83 66 -19 49
66 -36 83 -2 15 -53 15 -2 49 66 -53 -19 -53 -53 -2 15 -53 -2 -53 83 -53 83 32 15 -36 49
66 -53 66 32 -2 -36 -19 15 15 83 66 49 -2 -36 83 -2 15 66 49 32 83 32 66 32 -19 49
15 -2 66 66 -36 -53 -53 83 -2 32 49 83 15 -36 -19 83 83 -19 15 83 -53 32 -53 66 -53 -36
-2 83 15 15 15 -19 15 83 -36 49 -53 -53 -36 -19 -36 -2 -2 66 49 -36 83 15 -36 -2 32 66
-19 15 49 -36 -2 -53 -2 -19 49 49 -36 32 83 -2 15 32 83 15 49 -53 -19 83 49 49 -19 66
-36 -2 66 -19 66 -19 66 -2 15 -2 83 32 15 66 49 -36 -2 66 -53 83 15 49 -19 -19 32 -53
-53 -19 83 49 -53 32 -53 -53 66 15 32 66 -36 49 66 32 -53 -53 66 -2 -53 32 15 -36 -2 -2
32 -2 32 -36 -2 49 32 -53 32 49 32 -19 32 -53 15 32 -36 -36 -2 -36 66 15 -36 32 -2 83
